M48
; DRILL file {KiCad (5.1.9)-1} date 06/23/21 18:52:26
; FORMAT={-:-/ absolute / inch / decimal}
; #@! TF.CreationDate,2021-06-23T18:52:26+02:00
; #@! TF.GenerationSoftware,Kicad,Pcbnew,(5.1.9)-1
FMAT,2
INCH
T1C0.0157
T2C0.1260
T3C0.1772
T4C0.1969
%
G90
G05
T1
X-1.1811Y1.4961
X-1.1811Y0.2953
X-1.1811Y-0.2953
X-1.1811Y-1.4961
X-0.9843Y1.4961
X-0.9843Y0.2953
X-0.9843Y-0.2953
X-0.9843Y-1.4961
X-0.7874Y1.4961
X-0.7874Y0.2953
X-0.7874Y-0.2953
X-0.7874Y-1.4961
X-0.5906Y1.4961
X-0.5906Y0.2953
X-0.5906Y-0.2953
X-0.5906Y-1.4961
X-0.3937Y1.4961
X-0.3937Y0.2953
X-0.3937Y-0.2953
X-0.3937Y-1.4961
X-0.1969Y1.4961
X-0.1969Y0.2953
X-0.1969Y-0.2953
X-0.1969Y-1.4961
X0.0Y1.4961
X0.0Y0.2953
X0.0Y-0.2953
X0.0Y-1.4961
X0.1969Y1.4961
X0.1969Y0.2953
X0.1969Y-0.2953
X0.1969Y-1.4961
X0.3937Y1.4961
X0.3937Y0.2953
X0.3937Y-0.2953
X0.3937Y-1.4961
X0.5906Y1.4961
X0.5906Y0.2953
X0.5906Y-0.2953
X0.5906Y-1.4961
X0.7874Y1.4961
X0.7874Y0.2953
X0.7874Y-0.2953
X0.7874Y-1.4961
X0.9843Y1.4961
X0.9843Y0.2953
X0.9843Y-0.2953
X0.9843Y-1.4961
X1.1811Y1.4961
X1.1811Y0.2953
X1.1811Y-0.2953
X1.1811Y-1.4961
T2
X-1.2008Y1.8031
X-1.2008Y-1.8031
X1.2008Y1.8031
X1.2008Y-1.8031
T3
X-1.4764Y0.315
X-1.4764Y-0.315
X1.4764Y0.315
X1.4764Y-0.315
T4
G00X0.0Y0.7283
M15
G01X0.0Y1.0827
M16
G05
G00X0.0Y-0.7283
M15
G01X0.0Y-1.0827
M16
G05
T0
M30
