%TF.GenerationSoftware,KiCad,Pcbnew,(5.1.9)-1*%
%TF.CreationDate,2021-06-23T18:52:24+02:00*%
%TF.ProjectId,Demosat_Solar_Panel,44656d6f-7361-4745-9f53-6f6c61725f50,rev?*%
%TF.SameCoordinates,Original*%
%TF.FileFunction,Soldermask,Bot*%
%TF.FilePolarity,Negative*%
%FSLAX46Y46*%
G04 Gerber Fmt 4.6, Leading zero omitted, Abs format (unit mm)*
G04 Created by KiCad (PCBNEW (5.1.9)-1) date 2021-06-23 18:52:24*
%MOMM*%
%LPD*%
G01*
G04 APERTURE LIST*
%ADD10O,5.100000X14.100000*%
%ADD11C,4.900000*%
%ADD12C,5.700000*%
G04 APERTURE END LIST*
%TO.C,r*%
G36*
G01*
X12700000Y-14950000D02*
X10700000Y-14950000D01*
G75*
G02*
X10650000Y-14900000I0J50000D01*
G01*
X10650000Y-11100000D01*
G75*
G02*
X10700000Y-11050000I50000J0D01*
G01*
X12700000Y-11050000D01*
G75*
G02*
X12750000Y-11100000I0J-50000D01*
G01*
X12750000Y-14900000D01*
G75*
G02*
X12700000Y-14950000I-50000J0D01*
G01*
G37*
%TD*%
%TO.C,J1*%
G36*
G01*
X14300000Y-11050000D02*
X16300000Y-11050000D01*
G75*
G02*
X16350000Y-11100000I0J-50000D01*
G01*
X16350000Y-14900000D01*
G75*
G02*
X16300000Y-14950000I-50000J0D01*
G01*
X14300000Y-14950000D01*
G75*
G02*
X14250000Y-14900000I0J50000D01*
G01*
X14250000Y-11100000D01*
G75*
G02*
X14300000Y-11050000I50000J0D01*
G01*
G37*
%TD*%
%TO.C,SC2*%
G36*
G01*
X1000000Y-34550000D02*
X-1000000Y-34550000D01*
G75*
G02*
X-1050000Y-34500000I0J50000D01*
G01*
X-1050000Y-29500000D01*
G75*
G02*
X-1000000Y-29450000I50000J0D01*
G01*
X1000000Y-29450000D01*
G75*
G02*
X1050000Y-29500000I0J-50000D01*
G01*
X1050000Y-34500000D01*
G75*
G02*
X1000000Y-34550000I-50000J0D01*
G01*
G37*
G36*
G01*
X1000000Y-16550000D02*
X-1000000Y-16550000D01*
G75*
G02*
X-1050000Y-16500000I0J50000D01*
G01*
X-1050000Y-11500000D01*
G75*
G02*
X-1000000Y-11450000I50000J0D01*
G01*
X1000000Y-11450000D01*
G75*
G02*
X1050000Y-11500000I0J-50000D01*
G01*
X1050000Y-16500000D01*
G75*
G02*
X1000000Y-16550000I-50000J0D01*
G01*
G37*
D10*
X0Y-23000000D03*
D11*
X-37500000Y-8000000D03*
X37500000Y-8000000D03*
G36*
G01*
X-34030672Y-9736917D02*
X-35763083Y-11469328D01*
G75*
G02*
X-37495495Y-11469328I-866206J866206D01*
G01*
X-39369328Y-9595495D01*
G75*
G02*
X-39369328Y-7863083I866206J866206D01*
G01*
X-37636917Y-6130672D01*
G75*
G02*
X-35904505Y-6130672I866206J-866206D01*
G01*
X-34030672Y-8004505D01*
G75*
G02*
X-34030672Y-9736917I-866206J-866206D01*
G01*
G37*
G36*
G01*
X37636917Y-6130672D02*
X39369328Y-7863083D01*
G75*
G02*
X39369328Y-9595495I-866206J-866206D01*
G01*
X37495495Y-11469328D01*
G75*
G02*
X35763083Y-11469328I-866206J866206D01*
G01*
X34030672Y-9736917D01*
G75*
G02*
X34030672Y-8004505I866206J866206D01*
G01*
X35904505Y-6130672D01*
G75*
G02*
X37636917Y-6130672I866206J-866206D01*
G01*
G37*
%TD*%
D12*
%TO.C,H1*%
X-30500000Y45800000D03*
%TD*%
%TO.C,H4*%
X-30500000Y-45800000D03*
%TD*%
%TO.C,H3*%
X30500000Y-45800000D03*
%TD*%
%TO.C,H2*%
X30500000Y45800000D03*
%TD*%
%TO.C,SC1*%
G36*
G01*
X-1000000Y34550000D02*
X1000000Y34550000D01*
G75*
G02*
X1050000Y34500000I0J-50000D01*
G01*
X1050000Y29500000D01*
G75*
G02*
X1000000Y29450000I-50000J0D01*
G01*
X-1000000Y29450000D01*
G75*
G02*
X-1050000Y29500000I0J50000D01*
G01*
X-1050000Y34500000D01*
G75*
G02*
X-1000000Y34550000I50000J0D01*
G01*
G37*
G36*
G01*
X-1000000Y16550000D02*
X1000000Y16550000D01*
G75*
G02*
X1050000Y16500000I0J-50000D01*
G01*
X1050000Y11500000D01*
G75*
G02*
X1000000Y11450000I-50000J0D01*
G01*
X-1000000Y11450000D01*
G75*
G02*
X-1050000Y11500000I0J50000D01*
G01*
X-1050000Y16500000D01*
G75*
G02*
X-1000000Y16550000I50000J0D01*
G01*
G37*
D10*
X0Y23000000D03*
D11*
X37500000Y8000000D03*
X-37500000Y8000000D03*
G36*
G01*
X34030672Y9736917D02*
X35763083Y11469328D01*
G75*
G02*
X37495495Y11469328I866206J-866206D01*
G01*
X39369328Y9595495D01*
G75*
G02*
X39369328Y7863083I-866206J-866206D01*
G01*
X37636917Y6130672D01*
G75*
G02*
X35904505Y6130672I-866206J866206D01*
G01*
X34030672Y8004505D01*
G75*
G02*
X34030672Y9736917I866206J866206D01*
G01*
G37*
G36*
G01*
X-37636917Y6130672D02*
X-39369328Y7863083D01*
G75*
G02*
X-39369328Y9595495I866206J866206D01*
G01*
X-37495495Y11469328D01*
G75*
G02*
X-35763083Y11469328I866206J-866206D01*
G01*
X-34030672Y9736917D01*
G75*
G02*
X-34030672Y8004505I-866206J-866206D01*
G01*
X-35904505Y6130672D01*
G75*
G02*
X-37636917Y6130672I-866206J866206D01*
G01*
G37*
%TD*%
M02*
