%TF.GenerationSoftware,KiCad,Pcbnew,(5.1.9)-1*%
%TF.CreationDate,2021-06-23T18:52:24+02:00*%
%TF.ProjectId,Demosat_Solar_Panel,44656d6f-7361-4745-9f53-6f6c61725f50,rev?*%
%TF.SameCoordinates,Original*%
%TF.FileFunction,Soldermask,Top*%
%TF.FilePolarity,Negative*%
%FSLAX46Y46*%
G04 Gerber Fmt 4.6, Leading zero omitted, Abs format (unit mm)*
G04 Created by KiCad (PCBNEW (5.1.9)-1) date 2021-06-23 18:52:24*
%MOMM*%
%LPD*%
G01*
G04 APERTURE LIST*
%ADD10O,5.100000X14.100000*%
%ADD11C,4.900000*%
%ADD12C,5.700000*%
G04 APERTURE END LIST*
D10*
%TO.C,SC2*%
X0Y-23000000D03*
D11*
X-37500000Y-8000000D03*
X37500000Y-8000000D03*
%TD*%
D12*
%TO.C,H1*%
X-30500000Y45800000D03*
%TD*%
%TO.C,H4*%
X-30500000Y-45800000D03*
%TD*%
%TO.C,H3*%
X30500000Y-45800000D03*
%TD*%
%TO.C,H2*%
X30500000Y45800000D03*
%TD*%
D10*
%TO.C,SC1*%
X0Y23000000D03*
D11*
X37500000Y8000000D03*
X-37500000Y8000000D03*
%TD*%
M02*
