%TF.GenerationSoftware,KiCad,Pcbnew,(5.1.9)-1*%
%TF.CreationDate,2021-06-23T18:52:24+02:00*%
%TF.ProjectId,Demosat_Solar_Panel,44656d6f-7361-4745-9f53-6f6c61725f50,rev?*%
%TF.SameCoordinates,Original*%
%TF.FileFunction,Profile,NP*%
%FSLAX46Y46*%
G04 Gerber Fmt 4.6, Leading zero omitted, Abs format (unit mm)*
G04 Created by KiCad (PCBNEW (5.1.9)-1) date 2021-06-23 18:52:24*
%MOMM*%
%LPD*%
G01*
G04 APERTURE LIST*
%TA.AperFunction,Profile*%
%ADD10C,0.050000*%
%TD*%
G04 APERTURE END LIST*
D10*
X-4940000Y-4500000D02*
X5560000Y-4500000D01*
X6560000Y-3500000D02*
G75*
G02*
X5560000Y-4500000I-1000000J0D01*
G01*
X-4940000Y-4500000D02*
G75*
G02*
X-5940000Y-3500000I0J1000000D01*
G01*
X-5940000Y3500000D02*
G75*
G02*
X-4940000Y4500000I1000000J0D01*
G01*
X5560000Y4500000D02*
G75*
G02*
X6560000Y3500000I0J-1000000D01*
G01*
X-4940000Y4500000D02*
X5560000Y4500000D01*
X6560000Y-3500000D02*
X6560000Y3500000D01*
X-16750000Y200000D02*
G75*
G03*
X-16750000Y200000I-4250000J0D01*
G01*
X18900000Y250000D02*
X31900000Y250000D01*
X32400000Y-1750000D02*
X32400000Y-250000D01*
X18900000Y-2250000D02*
X31900000Y-2250000D01*
X18400000Y-250000D02*
X18400000Y-1750000D01*
X31900000Y250000D02*
G75*
G02*
X32400000Y-250000I0J-500000D01*
G01*
X32400000Y-1750000D02*
G75*
G02*
X31900000Y-2250000I-500000J0D01*
G01*
X18900000Y-2250000D02*
G75*
G02*
X18400000Y-1750000I0J500000D01*
G01*
X18400000Y-250000D02*
G75*
G02*
X18900000Y250000I500000J0D01*
G01*
X-5940000Y-3500000D02*
X-5940000Y3500000D01*
X41250000Y50500000D02*
X41250000Y-50500000D01*
X41250000Y-50500000D02*
X-41250000Y-50500000D01*
X-41000000Y50500000D02*
X41250000Y50500000D01*
X-41250000Y-50500000D02*
X-41000000Y50500000D01*
M02*
