G04 #@! TF.GenerationSoftware,KiCad,Pcbnew,(5.1.10)-1*
G04 #@! TF.CreationDate,2021-10-18T14:32:05+02:00*
G04 #@! TF.ProjectId,Demosat_Main_Board,44656d6f-7361-4745-9f4d-61696e5f426f,1.0*
G04 #@! TF.SameCoordinates,Original*
G04 #@! TF.FileFunction,Legend,Bot*
G04 #@! TF.FilePolarity,Positive*
%FSLAX46Y46*%
G04 Gerber Fmt 4.6, Leading zero omitted, Abs format (unit mm)*
G04 Created by KiCad (PCBNEW (5.1.10)-1) date 2021-10-18 14:32:05*
%MOMM*%
%LPD*%
G01*
G04 APERTURE LIST*
%ADD10C,0.150000*%
G04 APERTURE END LIST*
D10*
X161429238Y-146801904D02*
X161429238Y-147373333D01*
X161467333Y-147487619D01*
X161543523Y-147563809D01*
X161657809Y-147601904D01*
X161734000Y-147601904D01*
X160667333Y-147601904D02*
X161048285Y-147601904D01*
X161048285Y-146801904D01*
X159943523Y-147525714D02*
X159981619Y-147563809D01*
X160095904Y-147601904D01*
X160172095Y-147601904D01*
X160286380Y-147563809D01*
X160362571Y-147487619D01*
X160400666Y-147411428D01*
X160438761Y-147259047D01*
X160438761Y-147144761D01*
X160400666Y-146992380D01*
X160362571Y-146916190D01*
X160286380Y-146840000D01*
X160172095Y-146801904D01*
X160095904Y-146801904D01*
X159981619Y-146840000D01*
X159943523Y-146878095D01*
X159372095Y-146801904D02*
X159372095Y-147373333D01*
X159410190Y-147487619D01*
X159486380Y-147563809D01*
X159600666Y-147601904D01*
X159676857Y-147601904D01*
X158610190Y-147601904D02*
X158991142Y-147601904D01*
X158991142Y-146801904D01*
X157886380Y-147525714D02*
X157924476Y-147563809D01*
X158038761Y-147601904D01*
X158114952Y-147601904D01*
X158229238Y-147563809D01*
X158305428Y-147487619D01*
X158343523Y-147411428D01*
X158381619Y-147259047D01*
X158381619Y-147144761D01*
X158343523Y-146992380D01*
X158305428Y-146916190D01*
X158229238Y-146840000D01*
X158114952Y-146801904D01*
X158038761Y-146801904D01*
X157924476Y-146840000D01*
X157886380Y-146878095D01*
X157314952Y-146801904D02*
X157314952Y-147373333D01*
X157353047Y-147487619D01*
X157429238Y-147563809D01*
X157543523Y-147601904D01*
X157619714Y-147601904D01*
X156553047Y-147601904D02*
X156934000Y-147601904D01*
X156934000Y-146801904D01*
X155829238Y-147525714D02*
X155867333Y-147563809D01*
X155981619Y-147601904D01*
X156057809Y-147601904D01*
X156172095Y-147563809D01*
X156248285Y-147487619D01*
X156286380Y-147411428D01*
X156324476Y-147259047D01*
X156324476Y-147144761D01*
X156286380Y-146992380D01*
X156248285Y-146916190D01*
X156172095Y-146840000D01*
X156057809Y-146801904D01*
X155981619Y-146801904D01*
X155867333Y-146840000D01*
X155829238Y-146878095D01*
X155257809Y-146801904D02*
X155257809Y-147373333D01*
X155295904Y-147487619D01*
X155372095Y-147563809D01*
X155486380Y-147601904D01*
X155562571Y-147601904D01*
X154495904Y-147601904D02*
X154876857Y-147601904D01*
X154876857Y-146801904D01*
X153772095Y-147525714D02*
X153810190Y-147563809D01*
X153924476Y-147601904D01*
X154000666Y-147601904D01*
X154114952Y-147563809D01*
X154191142Y-147487619D01*
X154229238Y-147411428D01*
X154267333Y-147259047D01*
X154267333Y-147144761D01*
X154229238Y-146992380D01*
X154191142Y-146916190D01*
X154114952Y-146840000D01*
X154000666Y-146801904D01*
X153924476Y-146801904D01*
X153810190Y-146840000D01*
X153772095Y-146878095D01*
M02*
