G04 #@! TF.GenerationSoftware,KiCad,Pcbnew,(5.1.10)-1*
G04 #@! TF.CreationDate,2021-10-18T14:32:05+02:00*
G04 #@! TF.ProjectId,Demosat_Main_Board,44656d6f-7361-4745-9f4d-61696e5f426f,1.0*
G04 #@! TF.SameCoordinates,Original*
G04 #@! TF.FileFunction,Profile,NP*
%FSLAX46Y46*%
G04 Gerber Fmt 4.6, Leading zero omitted, Abs format (unit mm)*
G04 Created by KiCad (PCBNEW (5.1.10)-1) date 2021-10-18 14:32:05*
%MOMM*%
%LPD*%
G01*
G04 APERTURE LIST*
G04 #@! TA.AperFunction,Profile*
%ADD10C,0.010000*%
G04 #@! TD*
G04 APERTURE END LIST*
D10*
X98821000Y-91061000D02*
X98821000Y-108931000D01*
X185151000Y-91061000D02*
X185151000Y-108931000D01*
X96901000Y-53251000D02*
G75*
G02*
X98101000Y-52051000I1200000J0D01*
G01*
X98101000Y-147941000D02*
G75*
G02*
X96901000Y-146741000I0J1200000D01*
G01*
X187071000Y-146741000D02*
G75*
G02*
X185871000Y-147941000I-1200000J0D01*
G01*
X187071000Y-76236000D02*
X187071000Y-89361000D01*
X97621000Y-89861000D02*
X97401000Y-89861000D01*
X97621000Y-110131000D02*
X97401000Y-110131000D01*
X97621000Y-89861000D02*
G75*
G02*
X98821000Y-91061000I0J-1200000D01*
G01*
X98821000Y-108931000D02*
G75*
G02*
X97621000Y-110131000I-1200000J0D01*
G01*
X96901000Y-89361000D02*
X96901000Y-53251000D01*
X96901000Y-110631000D02*
X96901000Y-146741000D01*
X97401000Y-89861000D02*
G75*
G02*
X96901000Y-89361000I0J500000D01*
G01*
X96900999Y-110630999D02*
G75*
G02*
X97401000Y-110131000I500000J-1D01*
G01*
X186351000Y-89861000D02*
X186571000Y-89861000D01*
X186351000Y-110131000D02*
X186571000Y-110131000D01*
X185151000Y-91061000D02*
G75*
G02*
X186351000Y-89861000I1200000J0D01*
G01*
X186351000Y-110131000D02*
G75*
G02*
X185151000Y-108931000I0J1200000D01*
G01*
X186570999Y-110130999D02*
G75*
G02*
X187071000Y-110631000I0J-500001D01*
G01*
X187071000Y-110631000D02*
X187071000Y-146741000D01*
X187071000Y-89361000D02*
G75*
G02*
X186571000Y-89861000I-500000J0D01*
G01*
X134171000Y-54981000D02*
X152091000Y-54981000D01*
X132971000Y-53781000D02*
X132971000Y-52551000D01*
X153291000Y-53781000D02*
X153291000Y-52551000D01*
X153791000Y-52051000D02*
X181286000Y-52051000D01*
X132471000Y-52051000D02*
X98101000Y-52051000D01*
X153791000Y-147941000D02*
X185871000Y-147941000D01*
X98101000Y-147941000D02*
X132470999Y-147941001D01*
X132971000Y-146211000D02*
X132971000Y-147441000D01*
X153291000Y-146211000D02*
X153291000Y-147441000D01*
X134171000Y-145011000D02*
X152091000Y-145011000D01*
X181286000Y-52051000D02*
X185871000Y-52051000D01*
X187071000Y-53251000D02*
X187071000Y-76236000D01*
X185871000Y-52051000D02*
G75*
G02*
X187071000Y-53251000I0J-1200000D01*
G01*
X132471000Y-52051000D02*
G75*
G02*
X132971000Y-52551000I0J-500000D01*
G01*
X134171000Y-54981000D02*
G75*
G02*
X132971000Y-53781000I0J1200000D01*
G01*
X153291000Y-53781000D02*
G75*
G02*
X152091000Y-54981000I-1200000J0D01*
G01*
X153291000Y-52551000D02*
G75*
G02*
X153791000Y-52051000I500000J0D01*
G01*
X132971000Y-146211000D02*
G75*
G02*
X134171000Y-145011000I1200000J0D01*
G01*
X132971000Y-147441000D02*
G75*
G02*
X132470999Y-147941001I-500001J0D01*
G01*
X152091000Y-145011000D02*
G75*
G02*
X153291000Y-146211000I0J-1200000D01*
G01*
X153791000Y-147941000D02*
G75*
G02*
X153291000Y-147441000I0J500000D01*
G01*
M02*
