%TF.GenerationSoftware,KiCad,Pcbnew,(5.1.9)-1*%
%TF.CreationDate,2021-06-23T19:03:09+02:00*%
%TF.ProjectId,Demosat Solar Board KiCAD,44656d6f-7361-4742-9053-6f6c61722042,rev?*%
%TF.SameCoordinates,Original*%
%TF.FileFunction,Soldermask,Top*%
%TF.FilePolarity,Negative*%
%FSLAX46Y46*%
G04 Gerber Fmt 4.6, Leading zero omitted, Abs format (unit mm)*
G04 Created by KiCad (PCBNEW (5.1.9)-1) date 2021-06-23 19:03:09*
%MOMM*%
%LPD*%
G01*
G04 APERTURE LIST*
%ADD10R,3.500000X2.300000*%
%ADD11C,1.524000*%
%ADD12R,1.524000X1.524000*%
%ADD13C,5.600000*%
%ADD14O,1.700000X1.700000*%
%ADD15R,1.700000X1.700000*%
%ADD16O,1.700000X2.000000*%
%ADD17O,2.000000X1.700000*%
G04 APERTURE END LIST*
D10*
%TO.C,D1*%
X-22950000Y30250000D03*
X-17550000Y30250000D03*
%TD*%
%TO.C,D3*%
X7450000Y30250000D03*
X2050000Y30250000D03*
%TD*%
%TO.C,D2*%
X7450000Y1500000D03*
X2050000Y1500000D03*
%TD*%
%TO.C,D4*%
X-22950000Y1500000D03*
X-17550000Y1500000D03*
%TD*%
D11*
%TO.C,U4*%
X-22350000Y-3860000D03*
X-19810000Y-3860000D03*
X-17270000Y-3860000D03*
D12*
X-9650000Y-3860000D03*
D11*
X-12190000Y-3860000D03*
X-14730000Y-3860000D03*
%TD*%
%TO.C,U3*%
X9650000Y25140000D03*
X12190000Y25140000D03*
X14730000Y25140000D03*
D12*
X22350000Y25140000D03*
D11*
X19810000Y25140000D03*
X17270000Y25140000D03*
%TD*%
%TO.C,U2*%
X9650000Y-3860000D03*
X12190000Y-3860000D03*
X14730000Y-3860000D03*
D12*
X22350000Y-3860000D03*
D11*
X19810000Y-3860000D03*
X17270000Y-3860000D03*
%TD*%
%TO.C,U1*%
X-22350000Y25140000D03*
X-19810000Y25140000D03*
X-17270000Y25140000D03*
D12*
X-9650000Y25140000D03*
D11*
X-12190000Y25140000D03*
X-14730000Y25140000D03*
%TD*%
D13*
%TO.C,H4*%
X40005000Y-42865000D03*
%TD*%
%TO.C,H3*%
X37465000Y42865000D03*
%TD*%
%TO.C,H2*%
X-40005000Y-42865000D03*
%TD*%
%TO.C,H1*%
X-36195000Y42865000D03*
%TD*%
D14*
%TO.C,J5*%
X24130000Y39020000D03*
X24130000Y41560000D03*
X21590000Y39020000D03*
X21590000Y41560000D03*
X19050000Y39020000D03*
X19050000Y41560000D03*
X16510000Y39020000D03*
X16510000Y41560000D03*
X13970000Y39020000D03*
X13970000Y41560000D03*
X11430000Y39020000D03*
X11430000Y41560000D03*
X8890000Y39020000D03*
X8890000Y41560000D03*
X6350000Y39020000D03*
X6350000Y41560000D03*
X3810000Y39020000D03*
X3810000Y41560000D03*
X1270000Y39020000D03*
X1270000Y41560000D03*
X-1270000Y39020000D03*
X-1270000Y41560000D03*
X-3810000Y39020000D03*
X-3810000Y41560000D03*
X-6350000Y39020000D03*
X-6350000Y41560000D03*
X-8890000Y39020000D03*
X-8890000Y41560000D03*
X-11430000Y39020000D03*
X-11430000Y41560000D03*
X-13970000Y39020000D03*
X-13970000Y41560000D03*
X-16510000Y39020000D03*
X-16510000Y41560000D03*
X-19050000Y39020000D03*
X-19050000Y41560000D03*
X-21590000Y39020000D03*
X-21590000Y41560000D03*
X-24130000Y39020000D03*
D15*
X-24130000Y41560000D03*
%TD*%
D16*
%TO.C,J4*%
X-28900000Y-36500000D03*
G36*
G01*
X-32250000Y-37250000D02*
X-32250000Y-35750000D01*
G75*
G02*
X-32000000Y-35500000I250000J0D01*
G01*
X-30800000Y-35500000D01*
G75*
G02*
X-30550000Y-35750000I0J-250000D01*
G01*
X-30550000Y-37250000D01*
G75*
G02*
X-30800000Y-37500000I-250000J0D01*
G01*
X-32000000Y-37500000D01*
G75*
G02*
X-32250000Y-37250000I0J250000D01*
G01*
G37*
%TD*%
%TO.C,J3*%
X28900000Y36500000D03*
G36*
G01*
X32250000Y37250000D02*
X32250000Y35750000D01*
G75*
G02*
X32000000Y35500000I-250000J0D01*
G01*
X30800000Y35500000D01*
G75*
G02*
X30550000Y35750000I0J250000D01*
G01*
X30550000Y37250000D01*
G75*
G02*
X30800000Y37500000I250000J0D01*
G01*
X32000000Y37500000D01*
G75*
G02*
X32250000Y37250000I0J-250000D01*
G01*
G37*
%TD*%
D17*
%TO.C,J2*%
X33500000Y-28900000D03*
G36*
G01*
X34250000Y-32250000D02*
X32750000Y-32250000D01*
G75*
G02*
X32500000Y-32000000I0J250000D01*
G01*
X32500000Y-30800000D01*
G75*
G02*
X32750000Y-30550000I250000J0D01*
G01*
X34250000Y-30550000D01*
G75*
G02*
X34500000Y-30800000I0J-250000D01*
G01*
X34500000Y-32000000D01*
G75*
G02*
X34250000Y-32250000I-250000J0D01*
G01*
G37*
%TD*%
%TO.C,J1*%
X-33500000Y28900000D03*
G36*
G01*
X-34250000Y32250000D02*
X-32750000Y32250000D01*
G75*
G02*
X-32500000Y32000000I0J-250000D01*
G01*
X-32500000Y30800000D01*
G75*
G02*
X-32750000Y30550000I-250000J0D01*
G01*
X-34250000Y30550000D01*
G75*
G02*
X-34500000Y30800000I0J250000D01*
G01*
X-34500000Y32000000D01*
G75*
G02*
X-34250000Y32250000I250000J0D01*
G01*
G37*
%TD*%
M02*
