G04 #@! TF.GenerationSoftware,KiCad,Pcbnew,(5.1.9)-1*
G04 #@! TF.CreationDate,2021-06-23T18:06:50+02:00*
G04 #@! TF.ProjectId,Demosat_Sensor_Board,44656d6f-7361-4745-9f53-656e736f725f,1.0*
G04 #@! TF.SameCoordinates,Original*
G04 #@! TF.FileFunction,Legend,Bot*
G04 #@! TF.FilePolarity,Positive*
%FSLAX46Y46*%
G04 Gerber Fmt 4.6, Leading zero omitted, Abs format (unit mm)*
G04 Created by KiCad (PCBNEW (5.1.9)-1) date 2021-06-23 18:06:50*
%MOMM*%
%LPD*%
G01*
G04 APERTURE LIST*
%ADD10C,0.150000*%
G04 APERTURE END LIST*
D10*
X154933047Y-145430380D02*
X154933047Y-146144666D01*
X154980666Y-146287523D01*
X155075904Y-146382761D01*
X155218761Y-146430380D01*
X155314000Y-146430380D01*
X153980666Y-146430380D02*
X154456857Y-146430380D01*
X154456857Y-145430380D01*
X153075904Y-146335142D02*
X153123523Y-146382761D01*
X153266380Y-146430380D01*
X153361619Y-146430380D01*
X153504476Y-146382761D01*
X153599714Y-146287523D01*
X153647333Y-146192285D01*
X153694952Y-146001809D01*
X153694952Y-145858952D01*
X153647333Y-145668476D01*
X153599714Y-145573238D01*
X153504476Y-145478000D01*
X153361619Y-145430380D01*
X153266380Y-145430380D01*
X153123523Y-145478000D01*
X153075904Y-145525619D01*
X152361619Y-145430380D02*
X152361619Y-146144666D01*
X152409238Y-146287523D01*
X152504476Y-146382761D01*
X152647333Y-146430380D01*
X152742571Y-146430380D01*
X151409238Y-146430380D02*
X151885428Y-146430380D01*
X151885428Y-145430380D01*
X150504476Y-146335142D02*
X150552095Y-146382761D01*
X150694952Y-146430380D01*
X150790190Y-146430380D01*
X150933047Y-146382761D01*
X151028285Y-146287523D01*
X151075904Y-146192285D01*
X151123523Y-146001809D01*
X151123523Y-145858952D01*
X151075904Y-145668476D01*
X151028285Y-145573238D01*
X150933047Y-145478000D01*
X150790190Y-145430380D01*
X150694952Y-145430380D01*
X150552095Y-145478000D01*
X150504476Y-145525619D01*
X149790190Y-145430380D02*
X149790190Y-146144666D01*
X149837809Y-146287523D01*
X149933047Y-146382761D01*
X150075904Y-146430380D01*
X150171142Y-146430380D01*
X148837809Y-146430380D02*
X149314000Y-146430380D01*
X149314000Y-145430380D01*
X147933047Y-146335142D02*
X147980666Y-146382761D01*
X148123523Y-146430380D01*
X148218761Y-146430380D01*
X148361619Y-146382761D01*
X148456857Y-146287523D01*
X148504476Y-146192285D01*
X148552095Y-146001809D01*
X148552095Y-145858952D01*
X148504476Y-145668476D01*
X148456857Y-145573238D01*
X148361619Y-145478000D01*
X148218761Y-145430380D01*
X148123523Y-145430380D01*
X147980666Y-145478000D01*
X147933047Y-145525619D01*
X147218761Y-145430380D02*
X147218761Y-146144666D01*
X147266380Y-146287523D01*
X147361619Y-146382761D01*
X147504476Y-146430380D01*
X147599714Y-146430380D01*
X146266380Y-146430380D02*
X146742571Y-146430380D01*
X146742571Y-145430380D01*
X145361619Y-146335142D02*
X145409238Y-146382761D01*
X145552095Y-146430380D01*
X145647333Y-146430380D01*
X145790190Y-146382761D01*
X145885428Y-146287523D01*
X145933047Y-146192285D01*
X145980666Y-146001809D01*
X145980666Y-145858952D01*
X145933047Y-145668476D01*
X145885428Y-145573238D01*
X145790190Y-145478000D01*
X145647333Y-145430380D01*
X145552095Y-145430380D01*
X145409238Y-145478000D01*
X145361619Y-145525619D01*
M02*
