G04 #@! TF.GenerationSoftware,KiCad,Pcbnew,(5.1.9)-1*
G04 #@! TF.CreationDate,2021-06-23T18:06:50+02:00*
G04 #@! TF.ProjectId,Demosat_Sensor_Board,44656d6f-7361-4745-9f53-656e736f725f,1.0*
G04 #@! TF.SameCoordinates,Original*
G04 #@! TF.FileFunction,Soldermask,Top*
G04 #@! TF.FilePolarity,Negative*
%FSLAX46Y46*%
G04 Gerber Fmt 4.6, Leading zero omitted, Abs format (unit mm)*
G04 Created by KiCad (PCBNEW (5.1.9)-1) date 2021-06-23 18:06:50*
%MOMM*%
%LPD*%
G01*
G04 APERTURE LIST*
%ADD10O,1.400000X1.400000*%
%ADD11C,1.400000*%
%ADD12O,1.600000X1.600000*%
%ADD13C,1.600000*%
%ADD14C,1.524000*%
%ADD15C,1.903200*%
%ADD16O,1.700000X1.700000*%
%ADD17R,1.700000X1.700000*%
%ADD18C,1.800000*%
%ADD19R,1.800000X1.800000*%
%ADD20C,5.600000*%
G04 APERTURE END LIST*
D10*
X155648000Y-68254000D03*
D11*
X158188000Y-68254000D03*
D12*
X152600000Y-78414000D03*
D13*
X152600000Y-68254000D03*
D14*
X124500000Y-94924000D03*
X124500000Y-97464000D03*
X124500000Y-100004000D03*
X124500000Y-102544000D03*
D12*
X144980000Y-76890000D03*
D13*
X134820000Y-76890000D03*
D15*
X125660000Y-119844000D03*
X128200000Y-119844000D03*
X130740000Y-119844000D03*
G36*
G01*
X142686000Y-118892400D02*
X144194000Y-118892400D01*
G75*
G02*
X144295600Y-118994000I0J-101600D01*
G01*
X144295600Y-120694000D01*
G75*
G02*
X144194000Y-120795600I-101600J0D01*
G01*
X142686000Y-120795600D01*
G75*
G02*
X142584400Y-120694000I0J101600D01*
G01*
X142584400Y-118994000D01*
G75*
G02*
X142686000Y-118892400I101600J0D01*
G01*
G37*
X140900000Y-119844000D03*
X138360000Y-119844000D03*
X133280000Y-119844000D03*
X135820000Y-119844000D03*
D16*
X157680000Y-59714000D03*
X157680000Y-57174000D03*
X155140000Y-59714000D03*
X155140000Y-57174000D03*
X152600000Y-59714000D03*
X152600000Y-57174000D03*
X150060000Y-59714000D03*
X150060000Y-57174000D03*
X147520000Y-59714000D03*
X147520000Y-57174000D03*
X144980000Y-59714000D03*
X144980000Y-57174000D03*
X142440000Y-59714000D03*
X142440000Y-57174000D03*
X139900000Y-59714000D03*
X139900000Y-57174000D03*
X137360000Y-59714000D03*
X137360000Y-57174000D03*
X134820000Y-59714000D03*
X134820000Y-57174000D03*
X132280000Y-59714000D03*
X132280000Y-57174000D03*
X129740000Y-59714000D03*
X129740000Y-57174000D03*
X127200000Y-59714000D03*
X127200000Y-57174000D03*
X124660000Y-59714000D03*
X124660000Y-57174000D03*
X122120000Y-59714000D03*
X122120000Y-57174000D03*
X119580000Y-59714000D03*
X119580000Y-57174000D03*
X117040000Y-59714000D03*
X117040000Y-57174000D03*
X114500000Y-59714000D03*
X114500000Y-57174000D03*
X111960000Y-59714000D03*
X111960000Y-57174000D03*
X109420000Y-59714000D03*
D17*
X109420000Y-57174000D03*
D16*
X148950000Y-99514000D03*
X148950000Y-96974000D03*
X148950000Y-94434000D03*
X148950000Y-91894000D03*
X148950000Y-89354000D03*
X148950000Y-86814000D03*
X148950000Y-84274000D03*
D17*
X148950000Y-81734000D03*
D16*
X174350000Y-99514000D03*
X174350000Y-96974000D03*
X174350000Y-94434000D03*
X174350000Y-91894000D03*
X174350000Y-89354000D03*
X174350000Y-86814000D03*
X174350000Y-84274000D03*
D17*
X174350000Y-81734000D03*
D18*
X98090000Y-64734000D03*
D19*
X95550000Y-64734000D03*
D18*
X98090000Y-71734000D03*
D19*
X95550000Y-71734000D03*
D18*
X98090000Y-78734000D03*
D19*
X95550000Y-78734000D03*
D12*
X103390000Y-64734000D03*
D13*
X113550000Y-64734000D03*
D12*
X103390000Y-78734000D03*
D13*
X113550000Y-78734000D03*
D12*
X103390000Y-71734000D03*
D13*
X113550000Y-71734000D03*
D20*
X97355000Y-55869000D03*
X173555000Y-141599000D03*
X93545000Y-141599000D03*
X171015000Y-55869000D03*
D15*
X150835000Y-119844000D03*
X150835000Y-122384000D03*
X150835000Y-124924000D03*
X150835000Y-127464000D03*
G36*
G01*
X149883400Y-130854000D02*
X149883400Y-129154000D01*
G75*
G02*
X149985000Y-129052400I101600J0D01*
G01*
X151685000Y-129052400D01*
G75*
G02*
X151786600Y-129154000I0J-101600D01*
G01*
X151786600Y-130854000D01*
G75*
G02*
X151685000Y-130955600I-101600J0D01*
G01*
X149985000Y-130955600D01*
G75*
G02*
X149883400Y-130854000I0J101600D01*
G01*
G37*
X108740000Y-119844000D03*
X111280000Y-119844000D03*
X113820000Y-119844000D03*
G36*
G01*
X115510000Y-118892400D02*
X117210000Y-118892400D01*
G75*
G02*
X117311600Y-118994000I0J-101600D01*
G01*
X117311600Y-120694000D01*
G75*
G02*
X117210000Y-120795600I-101600J0D01*
G01*
X115510000Y-120795600D01*
G75*
G02*
X115408400Y-120694000I0J101600D01*
G01*
X115408400Y-118994000D01*
G75*
G02*
X115510000Y-118892400I101600J0D01*
G01*
G37*
M02*
