%TF.GenerationSoftware,KiCad,Pcbnew,(5.1.9)-1*%
%TF.CreationDate,2021-03-12T16:28:10+01:00*%
%TF.ProjectId,Demosat RFM95 Board KiCAD,44656d6f-7361-4742-9052-464d39352042,rev?*%
%TF.SameCoordinates,Original*%
%TF.FileFunction,Soldermask,Top*%
%TF.FilePolarity,Negative*%
%FSLAX46Y46*%
G04 Gerber Fmt 4.6, Leading zero omitted, Abs format (unit mm)*
G04 Created by KiCad (PCBNEW (5.1.9)-1) date 2021-03-12 16:28:10*
%MOMM*%
%LPD*%
G01*
G04 APERTURE LIST*
%ADD10C,2.100000*%
%ADD11O,1.800000X1.800000*%
G04 APERTURE END LIST*
D10*
%TO.C,J3*%
X151638000Y-95758000D03*
X151638000Y-90678000D03*
X156718000Y-90678000D03*
X156718000Y-95758000D03*
X154178000Y-93218000D03*
%TD*%
D11*
%TO.C,J2*%
X159131000Y-86360000D03*
X159131000Y-83820000D03*
X159131000Y-81280000D03*
X159131000Y-78740000D03*
X159131000Y-76200000D03*
X159131000Y-73660000D03*
X159131000Y-71120000D03*
G36*
G01*
X158231000Y-69430000D02*
X158231000Y-67730000D01*
G75*
G02*
X158281000Y-67680000I50000J0D01*
G01*
X159981000Y-67680000D01*
G75*
G02*
X160031000Y-67730000I0J-50000D01*
G01*
X160031000Y-69430000D01*
G75*
G02*
X159981000Y-69480000I-50000J0D01*
G01*
X158281000Y-69480000D01*
G75*
G02*
X158231000Y-69430000I0J50000D01*
G01*
G37*
%TD*%
%TO.C,U1*%
G36*
G01*
X153240000Y-72340000D02*
X153240000Y-71340000D01*
G75*
G02*
X153290000Y-71290000I50000J0D01*
G01*
X155290000Y-71290000D01*
G75*
G02*
X155340000Y-71340000I0J-50000D01*
G01*
X155340000Y-72340000D01*
G75*
G02*
X155290000Y-72390000I-50000J0D01*
G01*
X153290000Y-72390000D01*
G75*
G02*
X153240000Y-72340000I0J50000D01*
G01*
G37*
G36*
G01*
X153240000Y-74340000D02*
X153240000Y-73340000D01*
G75*
G02*
X153290000Y-73290000I50000J0D01*
G01*
X155290000Y-73290000D01*
G75*
G02*
X155340000Y-73340000I0J-50000D01*
G01*
X155340000Y-74340000D01*
G75*
G02*
X155290000Y-74390000I-50000J0D01*
G01*
X153290000Y-74390000D01*
G75*
G02*
X153240000Y-74340000I0J50000D01*
G01*
G37*
G36*
G01*
X153240000Y-76340000D02*
X153240000Y-75340000D01*
G75*
G02*
X153290000Y-75290000I50000J0D01*
G01*
X155290000Y-75290000D01*
G75*
G02*
X155340000Y-75340000I0J-50000D01*
G01*
X155340000Y-76340000D01*
G75*
G02*
X155290000Y-76390000I-50000J0D01*
G01*
X153290000Y-76390000D01*
G75*
G02*
X153240000Y-76340000I0J50000D01*
G01*
G37*
G36*
G01*
X153240000Y-78340000D02*
X153240000Y-77340000D01*
G75*
G02*
X153290000Y-77290000I50000J0D01*
G01*
X155290000Y-77290000D01*
G75*
G02*
X155340000Y-77340000I0J-50000D01*
G01*
X155340000Y-78340000D01*
G75*
G02*
X155290000Y-78390000I-50000J0D01*
G01*
X153290000Y-78390000D01*
G75*
G02*
X153240000Y-78340000I0J50000D01*
G01*
G37*
G36*
G01*
X153240000Y-80340000D02*
X153240000Y-79340000D01*
G75*
G02*
X153290000Y-79290000I50000J0D01*
G01*
X155290000Y-79290000D01*
G75*
G02*
X155340000Y-79340000I0J-50000D01*
G01*
X155340000Y-80340000D01*
G75*
G02*
X155290000Y-80390000I-50000J0D01*
G01*
X153290000Y-80390000D01*
G75*
G02*
X153240000Y-80340000I0J50000D01*
G01*
G37*
G36*
G01*
X153240000Y-82340000D02*
X153240000Y-81340000D01*
G75*
G02*
X153290000Y-81290000I50000J0D01*
G01*
X155290000Y-81290000D01*
G75*
G02*
X155340000Y-81340000I0J-50000D01*
G01*
X155340000Y-82340000D01*
G75*
G02*
X155290000Y-82390000I-50000J0D01*
G01*
X153290000Y-82390000D01*
G75*
G02*
X153240000Y-82340000I0J50000D01*
G01*
G37*
G36*
G01*
X153240000Y-84340000D02*
X153240000Y-83340000D01*
G75*
G02*
X153290000Y-83290000I50000J0D01*
G01*
X155290000Y-83290000D01*
G75*
G02*
X155340000Y-83340000I0J-50000D01*
G01*
X155340000Y-84340000D01*
G75*
G02*
X155290000Y-84390000I-50000J0D01*
G01*
X153290000Y-84390000D01*
G75*
G02*
X153240000Y-84340000I0J50000D01*
G01*
G37*
G36*
G01*
X153240000Y-86340000D02*
X153240000Y-85340000D01*
G75*
G02*
X153290000Y-85290000I50000J0D01*
G01*
X155290000Y-85290000D01*
G75*
G02*
X155340000Y-85340000I0J-50000D01*
G01*
X155340000Y-86340000D01*
G75*
G02*
X155290000Y-86390000I-50000J0D01*
G01*
X153290000Y-86390000D01*
G75*
G02*
X153240000Y-86340000I0J50000D01*
G01*
G37*
G36*
G01*
X137240000Y-86340000D02*
X137240000Y-85340000D01*
G75*
G02*
X137290000Y-85290000I50000J0D01*
G01*
X139290000Y-85290000D01*
G75*
G02*
X139340000Y-85340000I0J-50000D01*
G01*
X139340000Y-86340000D01*
G75*
G02*
X139290000Y-86390000I-50000J0D01*
G01*
X137290000Y-86390000D01*
G75*
G02*
X137240000Y-86340000I0J50000D01*
G01*
G37*
G36*
G01*
X137240000Y-84340000D02*
X137240000Y-83340000D01*
G75*
G02*
X137290000Y-83290000I50000J0D01*
G01*
X139290000Y-83290000D01*
G75*
G02*
X139340000Y-83340000I0J-50000D01*
G01*
X139340000Y-84340000D01*
G75*
G02*
X139290000Y-84390000I-50000J0D01*
G01*
X137290000Y-84390000D01*
G75*
G02*
X137240000Y-84340000I0J50000D01*
G01*
G37*
G36*
G01*
X137240000Y-82340000D02*
X137240000Y-81340000D01*
G75*
G02*
X137290000Y-81290000I50000J0D01*
G01*
X139290000Y-81290000D01*
G75*
G02*
X139340000Y-81340000I0J-50000D01*
G01*
X139340000Y-82340000D01*
G75*
G02*
X139290000Y-82390000I-50000J0D01*
G01*
X137290000Y-82390000D01*
G75*
G02*
X137240000Y-82340000I0J50000D01*
G01*
G37*
G36*
G01*
X137240000Y-80340000D02*
X137240000Y-79340000D01*
G75*
G02*
X137290000Y-79290000I50000J0D01*
G01*
X139290000Y-79290000D01*
G75*
G02*
X139340000Y-79340000I0J-50000D01*
G01*
X139340000Y-80340000D01*
G75*
G02*
X139290000Y-80390000I-50000J0D01*
G01*
X137290000Y-80390000D01*
G75*
G02*
X137240000Y-80340000I0J50000D01*
G01*
G37*
G36*
G01*
X137240000Y-78340000D02*
X137240000Y-77340000D01*
G75*
G02*
X137290000Y-77290000I50000J0D01*
G01*
X139290000Y-77290000D01*
G75*
G02*
X139340000Y-77340000I0J-50000D01*
G01*
X139340000Y-78340000D01*
G75*
G02*
X139290000Y-78390000I-50000J0D01*
G01*
X137290000Y-78390000D01*
G75*
G02*
X137240000Y-78340000I0J50000D01*
G01*
G37*
G36*
G01*
X137240000Y-76340000D02*
X137240000Y-75340000D01*
G75*
G02*
X137290000Y-75290000I50000J0D01*
G01*
X139290000Y-75290000D01*
G75*
G02*
X139340000Y-75340000I0J-50000D01*
G01*
X139340000Y-76340000D01*
G75*
G02*
X139290000Y-76390000I-50000J0D01*
G01*
X137290000Y-76390000D01*
G75*
G02*
X137240000Y-76340000I0J50000D01*
G01*
G37*
G36*
G01*
X137240000Y-74340000D02*
X137240000Y-73340000D01*
G75*
G02*
X137290000Y-73290000I50000J0D01*
G01*
X139290000Y-73290000D01*
G75*
G02*
X139340000Y-73340000I0J-50000D01*
G01*
X139340000Y-74340000D01*
G75*
G02*
X139290000Y-74390000I-50000J0D01*
G01*
X137290000Y-74390000D01*
G75*
G02*
X137240000Y-74340000I0J50000D01*
G01*
G37*
G36*
G01*
X137240000Y-72340000D02*
X137240000Y-71340000D01*
G75*
G02*
X137290000Y-71290000I50000J0D01*
G01*
X139290000Y-71290000D01*
G75*
G02*
X139340000Y-71340000I0J-50000D01*
G01*
X139340000Y-72340000D01*
G75*
G02*
X139290000Y-72390000I-50000J0D01*
G01*
X137290000Y-72390000D01*
G75*
G02*
X137240000Y-72340000I0J50000D01*
G01*
G37*
%TD*%
%TO.C,J1*%
X133731000Y-86360000D03*
X133731000Y-83820000D03*
X133731000Y-81280000D03*
X133731000Y-78740000D03*
X133731000Y-76200000D03*
X133731000Y-73660000D03*
X133731000Y-71120000D03*
G36*
G01*
X132831000Y-69430000D02*
X132831000Y-67730000D01*
G75*
G02*
X132881000Y-67680000I50000J0D01*
G01*
X134581000Y-67680000D01*
G75*
G02*
X134631000Y-67730000I0J-50000D01*
G01*
X134631000Y-69430000D01*
G75*
G02*
X134581000Y-69480000I-50000J0D01*
G01*
X132881000Y-69480000D01*
G75*
G02*
X132831000Y-69430000I0J50000D01*
G01*
G37*
%TD*%
M02*
