%TF.GenerationSoftware,KiCad,Pcbnew,(5.1.9)-1*%
%TF.CreationDate,2021-03-12T16:28:10+01:00*%
%TF.ProjectId,Demosat RFM95 Board KiCAD,44656d6f-7361-4742-9052-464d39352042,rev?*%
%TF.SameCoordinates,Original*%
%TF.FileFunction,Copper,L1,Top*%
%TF.FilePolarity,Positive*%
%FSLAX46Y46*%
G04 Gerber Fmt 4.6, Leading zero omitted, Abs format (unit mm)*
G04 Created by KiCad (PCBNEW (5.1.9)-1) date 2021-03-12 16:28:10*
%MOMM*%
%LPD*%
G01*
G04 APERTURE LIST*
%TA.AperFunction,ComponentPad*%
%ADD10C,2.000000*%
%TD*%
%TA.AperFunction,ComponentPad*%
%ADD11O,1.700000X1.700000*%
%TD*%
%TA.AperFunction,ComponentPad*%
%ADD12R,1.700000X1.700000*%
%TD*%
%TA.AperFunction,SMDPad,CuDef*%
%ADD13R,2.000000X1.000000*%
%TD*%
%TA.AperFunction,ViaPad*%
%ADD14C,0.800000*%
%TD*%
%TA.AperFunction,Conductor*%
%ADD15C,0.228600*%
%TD*%
%TA.AperFunction,Conductor*%
%ADD16C,0.635000*%
%TD*%
%TA.AperFunction,Conductor*%
%ADD17C,1.000000*%
%TD*%
%TA.AperFunction,Conductor*%
%ADD18C,0.254000*%
%TD*%
%TA.AperFunction,Conductor*%
%ADD19C,0.100000*%
%TD*%
G04 APERTURE END LIST*
D10*
%TO.P,J3,2*%
%TO.N,GND*%
X151638000Y-95758000D03*
X151638000Y-90678000D03*
X156718000Y-90678000D03*
X156718000Y-95758000D03*
%TO.P,J3,1*%
%TO.N,Net-(J3-Pad1)*%
X154178000Y-93218000D03*
%TD*%
D11*
%TO.P,J2,8*%
%TO.N,Net-(J2-Pad8)*%
X159131000Y-86360000D03*
%TO.P,J2,7*%
%TO.N,GND*%
X159131000Y-83820000D03*
%TO.P,J2,6*%
%TO.N,DIO3*%
X159131000Y-81280000D03*
%TO.P,J2,5*%
%TO.N,DIO4*%
X159131000Y-78740000D03*
%TO.P,J2,4*%
%TO.N,+3V3*%
X159131000Y-76200000D03*
%TO.P,J2,3*%
%TO.N,DIO0*%
X159131000Y-73660000D03*
%TO.P,J2,2*%
%TO.N,DIO1*%
X159131000Y-71120000D03*
D12*
%TO.P,J2,1*%
%TO.N,DIO2*%
X159131000Y-68580000D03*
%TD*%
D13*
%TO.P,U1,16*%
%TO.N,DIO2*%
X154290000Y-71840000D03*
%TO.P,U1,15*%
%TO.N,DIO1*%
X154290000Y-73840000D03*
%TO.P,U1,14*%
%TO.N,DIO0*%
X154290000Y-75840000D03*
%TO.P,U1,13*%
%TO.N,+3V3*%
X154290000Y-77840000D03*
%TO.P,U1,12*%
%TO.N,DIO4*%
X154290000Y-79840000D03*
%TO.P,U1,11*%
%TO.N,DIO3*%
X154290000Y-81840000D03*
%TO.P,U1,10*%
%TO.N,GND*%
X154290000Y-83840000D03*
%TO.P,U1,9*%
%TO.N,Net-(J3-Pad1)*%
X154290000Y-85840000D03*
%TO.P,U1,8*%
%TO.N,GND*%
X138290000Y-85840000D03*
%TO.P,U1,7*%
%TO.N,DIO5*%
X138290000Y-83840000D03*
%TO.P,U1,6*%
%TO.N,RST*%
X138290000Y-81840000D03*
%TO.P,U1,5*%
%TO.N,NSS*%
X138290000Y-79840000D03*
%TO.P,U1,4*%
%TO.N,SCK*%
X138290000Y-77840000D03*
%TO.P,U1,3*%
%TO.N,MOSI*%
X138290000Y-75840000D03*
%TO.P,U1,2*%
%TO.N,MISO*%
X138290000Y-73840000D03*
%TO.P,U1,1*%
%TO.N,GND*%
X138290000Y-71840000D03*
%TD*%
D11*
%TO.P,J1,8*%
%TO.N,GND*%
X133731000Y-86360000D03*
%TO.P,J1,7*%
%TO.N,DIO5*%
X133731000Y-83820000D03*
%TO.P,J1,6*%
%TO.N,RST*%
X133731000Y-81280000D03*
%TO.P,J1,5*%
%TO.N,NSS*%
X133731000Y-78740000D03*
%TO.P,J1,4*%
%TO.N,SCK*%
X133731000Y-76200000D03*
%TO.P,J1,3*%
%TO.N,MOSI*%
X133731000Y-73660000D03*
%TO.P,J1,2*%
%TO.N,MISO*%
X133731000Y-71120000D03*
D12*
%TO.P,J1,1*%
%TO.N,GND*%
X133731000Y-68580000D03*
%TD*%
D14*
%TO.N,GND*%
X152400000Y-86106000D03*
X152908000Y-87376000D03*
X152908000Y-88646000D03*
X156210000Y-86106000D03*
X155702000Y-87376000D03*
X155702000Y-88646000D03*
X152400000Y-84836000D03*
X156210000Y-84836000D03*
%TD*%
D15*
%TO.N,GND*%
X158730000Y-83840000D02*
X158750000Y-83820000D01*
X138290000Y-71840000D02*
X137880000Y-71840000D01*
%TO.N,DIO5*%
X134005000Y-83840000D02*
X133985000Y-83820000D01*
D16*
X138290000Y-83840000D02*
X134005000Y-83840000D01*
%TO.N,RST*%
X135405000Y-81280000D02*
X133731000Y-81280000D01*
X138290000Y-81840000D02*
X135965000Y-81840000D01*
X135965000Y-81840000D02*
X135405000Y-81280000D01*
%TO.N,NSS*%
X138290000Y-79840000D02*
X135720000Y-79840000D01*
X134620000Y-78740000D02*
X133731000Y-78740000D01*
X135720000Y-79840000D02*
X134620000Y-78740000D01*
%TO.N,SCK*%
X135371000Y-77840000D02*
X133731000Y-76200000D01*
X138290000Y-77840000D02*
X135371000Y-77840000D01*
%TO.N,MOSI*%
X138290000Y-75840000D02*
X137435000Y-75840000D01*
X135255000Y-73660000D02*
X133731000Y-73660000D01*
X137435000Y-75840000D02*
X135255000Y-73660000D01*
%TO.N,MISO*%
X138290000Y-73840000D02*
X137340000Y-73840000D01*
X134620000Y-71120000D02*
X133731000Y-71120000D01*
X137340000Y-73840000D02*
X134620000Y-71120000D01*
%TO.N,DIO3*%
X157480000Y-81280000D02*
X159131000Y-81280000D01*
X154290000Y-81840000D02*
X156920000Y-81840000D01*
X156920000Y-81840000D02*
X157480000Y-81280000D01*
%TO.N,DIO4*%
X154290000Y-79840000D02*
X157015000Y-79840000D01*
X158115000Y-78740000D02*
X159131000Y-78740000D01*
X157015000Y-79840000D02*
X158115000Y-78740000D01*
%TO.N,+3V3*%
X158115000Y-76200000D02*
X159131000Y-76200000D01*
X154290000Y-77840000D02*
X156475000Y-77840000D01*
X156475000Y-77840000D02*
X158115000Y-76200000D01*
%TO.N,DIO0*%
X157480000Y-73660000D02*
X159131000Y-73660000D01*
X154290000Y-75840000D02*
X155300000Y-75840000D01*
X155300000Y-75840000D02*
X157480000Y-73660000D01*
%TO.N,DIO1*%
X154290000Y-73840000D02*
X155395000Y-73840000D01*
X158115000Y-71120000D02*
X159131000Y-71120000D01*
X155395000Y-73840000D02*
X158115000Y-71120000D01*
%TO.N,DIO2*%
X158115000Y-68580000D02*
X159131000Y-68580000D01*
X154290000Y-71840000D02*
X154855000Y-71840000D01*
X154855000Y-71840000D02*
X158115000Y-68580000D01*
D17*
%TO.N,Net-(J3-Pad1)*%
X154290000Y-93106000D02*
X154178000Y-93218000D01*
X154290000Y-85840000D02*
X154290000Y-93106000D01*
%TD*%
D18*
%TO.N,GND*%
X159893902Y-65714763D02*
X159955842Y-65733464D01*
X160012977Y-65763843D01*
X160063123Y-65804740D01*
X160104369Y-65854599D01*
X160135146Y-65911519D01*
X160154280Y-65973334D01*
X160162501Y-66051544D01*
X160162501Y-67456233D01*
X160106743Y-67426430D01*
X160045103Y-67407732D01*
X159981000Y-67401418D01*
X158281000Y-67401418D01*
X158216897Y-67407732D01*
X158155257Y-67426430D01*
X158098450Y-67456794D01*
X158048657Y-67497657D01*
X158007794Y-67547450D01*
X157977430Y-67604257D01*
X157958732Y-67665897D01*
X157952418Y-67730000D01*
X157952418Y-67955818D01*
X157867167Y-67981679D01*
X157755203Y-68041525D01*
X157657065Y-68122065D01*
X157636886Y-68146653D01*
X154772122Y-71011418D01*
X153290000Y-71011418D01*
X153225897Y-71017732D01*
X153164257Y-71036430D01*
X153107450Y-71066794D01*
X153057657Y-71107657D01*
X153016794Y-71157450D01*
X152986430Y-71214257D01*
X152967732Y-71275897D01*
X152961418Y-71340000D01*
X152961418Y-72340000D01*
X152967732Y-72404103D01*
X152986430Y-72465743D01*
X153016794Y-72522550D01*
X153057657Y-72572343D01*
X153107450Y-72613206D01*
X153164257Y-72643570D01*
X153225897Y-72662268D01*
X153290000Y-72668582D01*
X155290000Y-72668582D01*
X155354103Y-72662268D01*
X155415743Y-72643570D01*
X155472550Y-72613206D01*
X155522343Y-72572343D01*
X155563206Y-72522550D01*
X155593570Y-72465743D01*
X155612268Y-72404103D01*
X155618582Y-72340000D01*
X155618582Y-71987878D01*
X158002958Y-69603503D01*
X158007794Y-69612550D01*
X158048657Y-69662343D01*
X158098450Y-69703206D01*
X158155257Y-69733570D01*
X158216897Y-69752268D01*
X158281000Y-69758582D01*
X159981000Y-69758582D01*
X160045103Y-69752268D01*
X160106743Y-69733570D01*
X160162501Y-69703767D01*
X160162501Y-70545205D01*
X160045236Y-70369706D01*
X159881294Y-70205764D01*
X159688519Y-70076956D01*
X159474318Y-69988231D01*
X159246924Y-69943000D01*
X159015076Y-69943000D01*
X158787682Y-69988231D01*
X158573481Y-70076956D01*
X158380706Y-70205764D01*
X158216764Y-70369706D01*
X158146110Y-70475447D01*
X158115000Y-70472383D01*
X158083350Y-70475500D01*
X158083343Y-70475500D01*
X158000080Y-70483701D01*
X157988655Y-70484826D01*
X157867167Y-70521679D01*
X157755203Y-70581525D01*
X157657065Y-70662065D01*
X157636886Y-70686653D01*
X155310138Y-73013402D01*
X155290000Y-73011418D01*
X153290000Y-73011418D01*
X153225897Y-73017732D01*
X153164257Y-73036430D01*
X153107450Y-73066794D01*
X153057657Y-73107657D01*
X153016794Y-73157450D01*
X152986430Y-73214257D01*
X152967732Y-73275897D01*
X152961418Y-73340000D01*
X152961418Y-74340000D01*
X152967732Y-74404103D01*
X152986430Y-74465743D01*
X153016794Y-74522550D01*
X153057657Y-74572343D01*
X153107450Y-74613206D01*
X153164257Y-74643570D01*
X153225897Y-74662268D01*
X153290000Y-74668582D01*
X155290000Y-74668582D01*
X155354103Y-74662268D01*
X155415743Y-74643570D01*
X155472550Y-74613206D01*
X155522343Y-74572343D01*
X155563206Y-74522550D01*
X155593570Y-74465743D01*
X155597739Y-74452000D01*
X155642833Y-74438321D01*
X155754797Y-74378475D01*
X155852935Y-74297935D01*
X155873118Y-74273342D01*
X158246465Y-71899995D01*
X158380706Y-72034236D01*
X158573481Y-72163044D01*
X158787682Y-72251769D01*
X159015076Y-72297000D01*
X159246924Y-72297000D01*
X159474318Y-72251769D01*
X159688519Y-72163044D01*
X159881294Y-72034236D01*
X160045236Y-71870294D01*
X160162501Y-71694795D01*
X160162501Y-73085205D01*
X160045236Y-72909706D01*
X159881294Y-72745764D01*
X159688519Y-72616956D01*
X159474318Y-72528231D01*
X159246924Y-72483000D01*
X159015076Y-72483000D01*
X158787682Y-72528231D01*
X158573481Y-72616956D01*
X158380706Y-72745764D01*
X158216764Y-72909706D01*
X158146075Y-73015500D01*
X157511657Y-73015500D01*
X157480000Y-73012382D01*
X157353655Y-73024826D01*
X157315402Y-73036430D01*
X157232167Y-73061679D01*
X157120203Y-73121525D01*
X157022065Y-73202065D01*
X157001886Y-73226653D01*
X155217122Y-75011418D01*
X153290000Y-75011418D01*
X153225897Y-75017732D01*
X153164257Y-75036430D01*
X153107450Y-75066794D01*
X153057657Y-75107657D01*
X153016794Y-75157450D01*
X152986430Y-75214257D01*
X152967732Y-75275897D01*
X152961418Y-75340000D01*
X152961418Y-76340000D01*
X152967732Y-76404103D01*
X152986430Y-76465743D01*
X153016794Y-76522550D01*
X153057657Y-76572343D01*
X153107450Y-76613206D01*
X153164257Y-76643570D01*
X153225897Y-76662268D01*
X153290000Y-76668582D01*
X155290000Y-76668582D01*
X155354103Y-76662268D01*
X155415743Y-76643570D01*
X155472550Y-76613206D01*
X155522343Y-76572343D01*
X155563206Y-76522550D01*
X155593570Y-76465743D01*
X155612268Y-76404103D01*
X155612291Y-76403867D01*
X155659797Y-76378475D01*
X155757935Y-76297935D01*
X155778118Y-76273342D01*
X157746961Y-74304500D01*
X158146075Y-74304500D01*
X158216764Y-74410294D01*
X158380706Y-74574236D01*
X158573481Y-74703044D01*
X158787682Y-74791769D01*
X159015076Y-74837000D01*
X159246924Y-74837000D01*
X159474318Y-74791769D01*
X159688519Y-74703044D01*
X159881294Y-74574236D01*
X160045236Y-74410294D01*
X160162501Y-74234795D01*
X160162501Y-75625205D01*
X160045236Y-75449706D01*
X159881294Y-75285764D01*
X159688519Y-75156956D01*
X159474318Y-75068231D01*
X159246924Y-75023000D01*
X159015076Y-75023000D01*
X158787682Y-75068231D01*
X158573481Y-75156956D01*
X158380706Y-75285764D01*
X158216764Y-75449706D01*
X158146110Y-75555447D01*
X158114999Y-75552383D01*
X158083350Y-75555500D01*
X158083343Y-75555500D01*
X158001216Y-75563589D01*
X157988655Y-75564826D01*
X157898524Y-75592167D01*
X157867167Y-75601679D01*
X157755203Y-75661525D01*
X157755201Y-75661526D01*
X157755202Y-75661526D01*
X157691683Y-75713655D01*
X157657065Y-75742065D01*
X157636886Y-75766653D01*
X156208040Y-77195500D01*
X155583544Y-77195500D01*
X155563206Y-77157450D01*
X155522343Y-77107657D01*
X155472550Y-77066794D01*
X155415743Y-77036430D01*
X155354103Y-77017732D01*
X155290000Y-77011418D01*
X153290000Y-77011418D01*
X153225897Y-77017732D01*
X153164257Y-77036430D01*
X153107450Y-77066794D01*
X153057657Y-77107657D01*
X153016794Y-77157450D01*
X152986430Y-77214257D01*
X152967732Y-77275897D01*
X152961418Y-77340000D01*
X152961418Y-78340000D01*
X152967732Y-78404103D01*
X152986430Y-78465743D01*
X153016794Y-78522550D01*
X153057657Y-78572343D01*
X153107450Y-78613206D01*
X153164257Y-78643570D01*
X153225897Y-78662268D01*
X153290000Y-78668582D01*
X155290000Y-78668582D01*
X155354103Y-78662268D01*
X155415743Y-78643570D01*
X155472550Y-78613206D01*
X155522343Y-78572343D01*
X155563206Y-78522550D01*
X155583544Y-78484500D01*
X156443351Y-78484500D01*
X156475000Y-78487617D01*
X156506649Y-78484500D01*
X156506657Y-78484500D01*
X156601344Y-78475174D01*
X156722833Y-78438321D01*
X156834797Y-78378475D01*
X156932935Y-78297935D01*
X156953118Y-78273342D01*
X158246465Y-76979995D01*
X158380706Y-77114236D01*
X158573481Y-77243044D01*
X158787682Y-77331769D01*
X159015076Y-77377000D01*
X159246924Y-77377000D01*
X159474318Y-77331769D01*
X159688519Y-77243044D01*
X159881294Y-77114236D01*
X160045236Y-76950294D01*
X160162501Y-76774795D01*
X160162501Y-78165205D01*
X160045236Y-77989706D01*
X159881294Y-77825764D01*
X159688519Y-77696956D01*
X159474318Y-77608231D01*
X159246924Y-77563000D01*
X159015076Y-77563000D01*
X158787682Y-77608231D01*
X158573481Y-77696956D01*
X158380706Y-77825764D01*
X158216764Y-77989706D01*
X158146110Y-78095447D01*
X158115000Y-78092383D01*
X158083350Y-78095500D01*
X158083343Y-78095500D01*
X158000080Y-78103701D01*
X157988655Y-78104826D01*
X157867167Y-78141679D01*
X157755203Y-78201525D01*
X157657065Y-78282065D01*
X157636886Y-78306653D01*
X156748040Y-79195500D01*
X155583544Y-79195500D01*
X155563206Y-79157450D01*
X155522343Y-79107657D01*
X155472550Y-79066794D01*
X155415743Y-79036430D01*
X155354103Y-79017732D01*
X155290000Y-79011418D01*
X153290000Y-79011418D01*
X153225897Y-79017732D01*
X153164257Y-79036430D01*
X153107450Y-79066794D01*
X153057657Y-79107657D01*
X153016794Y-79157450D01*
X152986430Y-79214257D01*
X152967732Y-79275897D01*
X152961418Y-79340000D01*
X152961418Y-80340000D01*
X152967732Y-80404103D01*
X152986430Y-80465743D01*
X153016794Y-80522550D01*
X153057657Y-80572343D01*
X153107450Y-80613206D01*
X153164257Y-80643570D01*
X153225897Y-80662268D01*
X153290000Y-80668582D01*
X155290000Y-80668582D01*
X155354103Y-80662268D01*
X155415743Y-80643570D01*
X155472550Y-80613206D01*
X155522343Y-80572343D01*
X155563206Y-80522550D01*
X155583544Y-80484500D01*
X156983351Y-80484500D01*
X157015000Y-80487617D01*
X157046649Y-80484500D01*
X157046657Y-80484500D01*
X157141344Y-80475174D01*
X157262833Y-80438321D01*
X157374797Y-80378475D01*
X157472935Y-80297935D01*
X157493118Y-80273342D01*
X158246465Y-79519995D01*
X158380706Y-79654236D01*
X158573481Y-79783044D01*
X158787682Y-79871769D01*
X159015076Y-79917000D01*
X159246924Y-79917000D01*
X159474318Y-79871769D01*
X159688519Y-79783044D01*
X159881294Y-79654236D01*
X160045236Y-79490294D01*
X160162501Y-79314795D01*
X160162501Y-80705205D01*
X160045236Y-80529706D01*
X159881294Y-80365764D01*
X159688519Y-80236956D01*
X159474318Y-80148231D01*
X159246924Y-80103000D01*
X159015076Y-80103000D01*
X158787682Y-80148231D01*
X158573481Y-80236956D01*
X158380706Y-80365764D01*
X158216764Y-80529706D01*
X158146075Y-80635500D01*
X157511657Y-80635500D01*
X157480000Y-80632382D01*
X157353655Y-80644826D01*
X157275342Y-80668582D01*
X157232167Y-80681679D01*
X157120203Y-80741525D01*
X157022065Y-80822065D01*
X157001886Y-80846653D01*
X156653040Y-81195500D01*
X155583544Y-81195500D01*
X155563206Y-81157450D01*
X155522343Y-81107657D01*
X155472550Y-81066794D01*
X155415743Y-81036430D01*
X155354103Y-81017732D01*
X155290000Y-81011418D01*
X153290000Y-81011418D01*
X153225897Y-81017732D01*
X153164257Y-81036430D01*
X153107450Y-81066794D01*
X153057657Y-81107657D01*
X153016794Y-81157450D01*
X152986430Y-81214257D01*
X152967732Y-81275897D01*
X152961418Y-81340000D01*
X152961418Y-82340000D01*
X152967732Y-82404103D01*
X152986430Y-82465743D01*
X153016794Y-82522550D01*
X153057657Y-82572343D01*
X153107450Y-82613206D01*
X153164257Y-82643570D01*
X153225897Y-82662268D01*
X153290000Y-82668582D01*
X155290000Y-82668582D01*
X155354103Y-82662268D01*
X155415743Y-82643570D01*
X155472550Y-82613206D01*
X155522343Y-82572343D01*
X155563206Y-82522550D01*
X155583544Y-82484500D01*
X156888351Y-82484500D01*
X156920000Y-82487617D01*
X156951649Y-82484500D01*
X156951657Y-82484500D01*
X157046344Y-82475174D01*
X157167833Y-82438321D01*
X157279797Y-82378475D01*
X157377935Y-82297935D01*
X157398118Y-82273342D01*
X157746961Y-81924500D01*
X158146075Y-81924500D01*
X158216764Y-82030294D01*
X158380706Y-82194236D01*
X158573481Y-82323044D01*
X158622998Y-82343555D01*
X158622998Y-82583321D01*
X158410961Y-82521221D01*
X158171417Y-82686649D01*
X157968749Y-82895631D01*
X157832241Y-83099965D01*
X157905898Y-83312000D01*
X158623000Y-83312000D01*
X158623000Y-83292000D01*
X159639000Y-83292000D01*
X159639000Y-83312000D01*
X159659000Y-83312000D01*
X159659000Y-84328000D01*
X159639000Y-84328000D01*
X159639000Y-84348000D01*
X158623000Y-84348000D01*
X158623000Y-84328000D01*
X157905898Y-84328000D01*
X157832241Y-84540035D01*
X157968749Y-84744369D01*
X158171417Y-84953351D01*
X158410961Y-85118779D01*
X158622998Y-85056679D01*
X158622998Y-85296445D01*
X158573481Y-85316956D01*
X158380706Y-85445764D01*
X158216764Y-85609706D01*
X158087956Y-85802481D01*
X157999231Y-86016682D01*
X157954000Y-86244076D01*
X157954000Y-86475924D01*
X157999231Y-86703318D01*
X158087956Y-86917519D01*
X158216764Y-87110294D01*
X158380706Y-87274236D01*
X158573481Y-87403044D01*
X158787682Y-87491769D01*
X159015076Y-87537000D01*
X159246924Y-87537000D01*
X159474318Y-87491769D01*
X159688519Y-87403044D01*
X159881294Y-87274236D01*
X160045236Y-87110294D01*
X160162500Y-86934795D01*
X160162500Y-97140229D01*
X160154738Y-97219398D01*
X160136035Y-97281345D01*
X160105657Y-97338477D01*
X160064758Y-97388624D01*
X160014901Y-97429869D01*
X159957982Y-97460645D01*
X159896166Y-97479780D01*
X159817966Y-97488000D01*
X133047271Y-97488000D01*
X132968102Y-97480238D01*
X132906155Y-97461535D01*
X132849023Y-97431157D01*
X132798876Y-97390258D01*
X132757631Y-97340401D01*
X132726855Y-97283482D01*
X132707720Y-97221666D01*
X132699500Y-97143466D01*
X132699500Y-97103281D01*
X151011140Y-97103281D01*
X151130625Y-97320603D01*
X151445223Y-97389563D01*
X151767229Y-97395822D01*
X152084269Y-97339140D01*
X152145375Y-97320603D01*
X152264860Y-97103281D01*
X156091140Y-97103281D01*
X156210625Y-97320603D01*
X156525223Y-97389563D01*
X156847229Y-97395822D01*
X157164269Y-97339140D01*
X157225375Y-97320603D01*
X157344860Y-97103281D01*
X156718000Y-96476420D01*
X156091140Y-97103281D01*
X152264860Y-97103281D01*
X151638000Y-96476420D01*
X151011140Y-97103281D01*
X132699500Y-97103281D01*
X132699500Y-95887229D01*
X150000178Y-95887229D01*
X150056860Y-96204269D01*
X150075397Y-96265375D01*
X150292719Y-96384860D01*
X150919580Y-95758000D01*
X152356420Y-95758000D01*
X152983281Y-96384860D01*
X153200603Y-96265375D01*
X153269563Y-95950777D01*
X153270798Y-95887229D01*
X155080178Y-95887229D01*
X155136860Y-96204269D01*
X155155397Y-96265375D01*
X155372719Y-96384860D01*
X155999580Y-95758000D01*
X157436420Y-95758000D01*
X158063281Y-96384860D01*
X158280603Y-96265375D01*
X158349563Y-95950777D01*
X158355822Y-95628771D01*
X158299140Y-95311731D01*
X158280603Y-95250625D01*
X158063281Y-95131140D01*
X157436420Y-95758000D01*
X155999580Y-95758000D01*
X155372719Y-95131140D01*
X155155397Y-95250625D01*
X155086437Y-95565223D01*
X155080178Y-95887229D01*
X153270798Y-95887229D01*
X153275822Y-95628771D01*
X153219140Y-95311731D01*
X153200603Y-95250625D01*
X152983281Y-95131140D01*
X152356420Y-95758000D01*
X150919580Y-95758000D01*
X150292719Y-95131140D01*
X150075397Y-95250625D01*
X150006437Y-95565223D01*
X150000178Y-95887229D01*
X132699500Y-95887229D01*
X132699500Y-94412719D01*
X151011140Y-94412719D01*
X151638000Y-95039580D01*
X152264860Y-94412719D01*
X152145375Y-94195397D01*
X151830777Y-94126437D01*
X151508771Y-94120178D01*
X151191731Y-94176860D01*
X151130625Y-94195397D01*
X151011140Y-94412719D01*
X132699500Y-94412719D01*
X132699500Y-93087302D01*
X152851000Y-93087302D01*
X152851000Y-93348698D01*
X152901996Y-93605072D01*
X153002028Y-93846570D01*
X153147252Y-94063913D01*
X153332087Y-94248748D01*
X153549430Y-94393972D01*
X153790928Y-94494004D01*
X154047302Y-94545000D01*
X154308698Y-94545000D01*
X154565072Y-94494004D01*
X154761310Y-94412719D01*
X156091140Y-94412719D01*
X156718000Y-95039580D01*
X157344860Y-94412719D01*
X157225375Y-94195397D01*
X156910777Y-94126437D01*
X156588771Y-94120178D01*
X156271731Y-94176860D01*
X156210625Y-94195397D01*
X156091140Y-94412719D01*
X154761310Y-94412719D01*
X154806570Y-94393972D01*
X155023913Y-94248748D01*
X155208748Y-94063913D01*
X155353972Y-93846570D01*
X155454004Y-93605072D01*
X155505000Y-93348698D01*
X155505000Y-93087302D01*
X155454004Y-92830928D01*
X155353972Y-92589430D01*
X155208748Y-92372087D01*
X155117000Y-92280339D01*
X155117000Y-92023281D01*
X156091140Y-92023281D01*
X156210625Y-92240603D01*
X156525223Y-92309563D01*
X156847229Y-92315822D01*
X157164269Y-92259140D01*
X157225375Y-92240603D01*
X157344860Y-92023281D01*
X156718000Y-91396420D01*
X156091140Y-92023281D01*
X155117000Y-92023281D01*
X155117000Y-91013186D01*
X155136860Y-91124269D01*
X155155397Y-91185375D01*
X155372719Y-91304860D01*
X155999580Y-90678000D01*
X157436420Y-90678000D01*
X158063281Y-91304860D01*
X158280603Y-91185375D01*
X158349563Y-90870777D01*
X158355822Y-90548771D01*
X158299140Y-90231731D01*
X158280603Y-90170625D01*
X158063281Y-90051140D01*
X157436420Y-90678000D01*
X155999580Y-90678000D01*
X155372719Y-90051140D01*
X155155397Y-90170625D01*
X155117000Y-90345793D01*
X155117000Y-89332719D01*
X156091140Y-89332719D01*
X156718000Y-89959580D01*
X157344860Y-89332719D01*
X157225375Y-89115397D01*
X156910777Y-89046437D01*
X156588771Y-89040178D01*
X156271731Y-89096860D01*
X156210625Y-89115397D01*
X156091140Y-89332719D01*
X155117000Y-89332719D01*
X155117000Y-86668582D01*
X155290000Y-86668582D01*
X155354103Y-86662268D01*
X155415743Y-86643570D01*
X155472550Y-86613206D01*
X155522343Y-86572343D01*
X155563206Y-86522550D01*
X155593570Y-86465743D01*
X155612268Y-86404103D01*
X155618582Y-86340000D01*
X155618582Y-85340000D01*
X155612268Y-85275897D01*
X155593570Y-85214257D01*
X155563206Y-85157450D01*
X155522343Y-85107657D01*
X155472550Y-85066794D01*
X155415743Y-85036430D01*
X155354103Y-85017732D01*
X155290000Y-85011418D01*
X154314561Y-85011418D01*
X154290000Y-85008999D01*
X154265439Y-85011418D01*
X153290000Y-85011418D01*
X153225897Y-85017732D01*
X153164257Y-85036430D01*
X153107450Y-85066794D01*
X153057657Y-85107657D01*
X153016794Y-85157450D01*
X152986430Y-85214257D01*
X152967732Y-85275897D01*
X152961418Y-85340000D01*
X152961418Y-86340000D01*
X152967732Y-86404103D01*
X152986430Y-86465743D01*
X153016794Y-86522550D01*
X153057657Y-86572343D01*
X153107450Y-86613206D01*
X153164257Y-86643570D01*
X153225897Y-86662268D01*
X153290000Y-86668582D01*
X153463000Y-86668582D01*
X153463001Y-92099778D01*
X153332087Y-92187252D01*
X153147252Y-92372087D01*
X153002028Y-92589430D01*
X152901996Y-92830928D01*
X152851000Y-93087302D01*
X132699500Y-93087302D01*
X132699500Y-92023281D01*
X151011140Y-92023281D01*
X151130625Y-92240603D01*
X151445223Y-92309563D01*
X151767229Y-92315822D01*
X152084269Y-92259140D01*
X152145375Y-92240603D01*
X152264860Y-92023281D01*
X151638000Y-91396420D01*
X151011140Y-92023281D01*
X132699500Y-92023281D01*
X132699500Y-90807229D01*
X150000178Y-90807229D01*
X150056860Y-91124269D01*
X150075397Y-91185375D01*
X150292719Y-91304860D01*
X150919580Y-90678000D01*
X152356420Y-90678000D01*
X152983281Y-91304860D01*
X153200603Y-91185375D01*
X153269563Y-90870777D01*
X153275822Y-90548771D01*
X153219140Y-90231731D01*
X153200603Y-90170625D01*
X152983281Y-90051140D01*
X152356420Y-90678000D01*
X150919580Y-90678000D01*
X150292719Y-90051140D01*
X150075397Y-90170625D01*
X150006437Y-90485223D01*
X150000178Y-90807229D01*
X132699500Y-90807229D01*
X132699500Y-89332719D01*
X151011140Y-89332719D01*
X151638000Y-89959580D01*
X152264860Y-89332719D01*
X152145375Y-89115397D01*
X151830777Y-89046437D01*
X151508771Y-89040178D01*
X151191731Y-89096860D01*
X151130625Y-89115397D01*
X151011140Y-89332719D01*
X132699500Y-89332719D01*
X132699500Y-87419193D01*
X132771417Y-87493351D01*
X133010961Y-87658779D01*
X133223000Y-87596678D01*
X133223000Y-86868000D01*
X134239000Y-86868000D01*
X134239000Y-87596678D01*
X134451039Y-87658779D01*
X134690583Y-87493351D01*
X134893251Y-87284369D01*
X135029759Y-87080035D01*
X134956102Y-86868000D01*
X134239000Y-86868000D01*
X133223000Y-86868000D01*
X133203000Y-86868000D01*
X133203000Y-86371750D01*
X136655000Y-86371750D01*
X136665734Y-86472013D01*
X136703483Y-86591264D01*
X136763772Y-86700860D01*
X136844284Y-86796588D01*
X136941924Y-86874770D01*
X137052941Y-86932401D01*
X137173067Y-86967266D01*
X137297688Y-86978026D01*
X137623250Y-86975000D01*
X137782000Y-86816250D01*
X137782000Y-86213000D01*
X138798000Y-86213000D01*
X138798000Y-86816250D01*
X138956750Y-86975000D01*
X139282312Y-86978026D01*
X139406933Y-86967266D01*
X139527059Y-86932401D01*
X139638076Y-86874770D01*
X139735716Y-86796588D01*
X139816228Y-86700860D01*
X139876517Y-86591264D01*
X139914266Y-86472013D01*
X139925000Y-86371750D01*
X139766250Y-86213000D01*
X138798000Y-86213000D01*
X137782000Y-86213000D01*
X136813750Y-86213000D01*
X136655000Y-86371750D01*
X133203000Y-86371750D01*
X133203000Y-85852000D01*
X133223000Y-85852000D01*
X133223000Y-85832000D01*
X134239000Y-85832000D01*
X134239000Y-85852000D01*
X134956102Y-85852000D01*
X135029759Y-85639965D01*
X134893251Y-85435631D01*
X134769719Y-85308250D01*
X136655000Y-85308250D01*
X136813750Y-85467000D01*
X137782000Y-85467000D01*
X137782000Y-84863750D01*
X138798000Y-84863750D01*
X138798000Y-85467000D01*
X139766250Y-85467000D01*
X139925000Y-85308250D01*
X139914266Y-85207987D01*
X139876517Y-85088736D01*
X139816228Y-84979140D01*
X139735716Y-84883412D01*
X139638076Y-84805230D01*
X139527059Y-84747599D01*
X139406933Y-84712734D01*
X139282312Y-84701974D01*
X138956750Y-84705000D01*
X138798000Y-84863750D01*
X137782000Y-84863750D01*
X137623250Y-84705000D01*
X137297688Y-84701974D01*
X137173067Y-84712734D01*
X137052941Y-84747599D01*
X136941924Y-84805230D01*
X136844284Y-84883412D01*
X136763772Y-84979140D01*
X136703483Y-85088736D01*
X136665734Y-85207987D01*
X136655000Y-85308250D01*
X134769719Y-85308250D01*
X134690583Y-85226649D01*
X134451039Y-85061221D01*
X134239002Y-85123321D01*
X134239002Y-84883555D01*
X134288519Y-84863044D01*
X134481294Y-84734236D01*
X134645236Y-84570294D01*
X134702562Y-84484500D01*
X136996456Y-84484500D01*
X137016794Y-84522550D01*
X137057657Y-84572343D01*
X137107450Y-84613206D01*
X137164257Y-84643570D01*
X137225897Y-84662268D01*
X137290000Y-84668582D01*
X139290000Y-84668582D01*
X139354103Y-84662268D01*
X139415743Y-84643570D01*
X139472550Y-84613206D01*
X139522343Y-84572343D01*
X139563206Y-84522550D01*
X139593570Y-84465743D01*
X139612268Y-84404103D01*
X139615454Y-84371750D01*
X152655000Y-84371750D01*
X152665734Y-84472013D01*
X152703483Y-84591264D01*
X152763772Y-84700860D01*
X152844284Y-84796588D01*
X152941924Y-84874770D01*
X153052941Y-84932401D01*
X153173067Y-84967266D01*
X153297688Y-84978026D01*
X153623250Y-84975000D01*
X153782000Y-84816250D01*
X153782000Y-84213000D01*
X154798000Y-84213000D01*
X154798000Y-84816250D01*
X154956750Y-84975000D01*
X155282312Y-84978026D01*
X155406933Y-84967266D01*
X155527059Y-84932401D01*
X155638076Y-84874770D01*
X155735716Y-84796588D01*
X155816228Y-84700860D01*
X155876517Y-84591264D01*
X155914266Y-84472013D01*
X155925000Y-84371750D01*
X155766250Y-84213000D01*
X154798000Y-84213000D01*
X153782000Y-84213000D01*
X152813750Y-84213000D01*
X152655000Y-84371750D01*
X139615454Y-84371750D01*
X139618582Y-84340000D01*
X139618582Y-83340000D01*
X139615455Y-83308250D01*
X152655000Y-83308250D01*
X152813750Y-83467000D01*
X153782000Y-83467000D01*
X153782000Y-82863750D01*
X154798000Y-82863750D01*
X154798000Y-83467000D01*
X155766250Y-83467000D01*
X155925000Y-83308250D01*
X155914266Y-83207987D01*
X155876517Y-83088736D01*
X155816228Y-82979140D01*
X155735716Y-82883412D01*
X155638076Y-82805230D01*
X155527059Y-82747599D01*
X155406933Y-82712734D01*
X155282312Y-82701974D01*
X154956750Y-82705000D01*
X154798000Y-82863750D01*
X153782000Y-82863750D01*
X153623250Y-82705000D01*
X153297688Y-82701974D01*
X153173067Y-82712734D01*
X153052941Y-82747599D01*
X152941924Y-82805230D01*
X152844284Y-82883412D01*
X152763772Y-82979140D01*
X152703483Y-83088736D01*
X152665734Y-83207987D01*
X152655000Y-83308250D01*
X139615455Y-83308250D01*
X139612268Y-83275897D01*
X139593570Y-83214257D01*
X139563206Y-83157450D01*
X139522343Y-83107657D01*
X139472550Y-83066794D01*
X139415743Y-83036430D01*
X139354103Y-83017732D01*
X139290000Y-83011418D01*
X137290000Y-83011418D01*
X137225897Y-83017732D01*
X137164257Y-83036430D01*
X137107450Y-83066794D01*
X137057657Y-83107657D01*
X137016794Y-83157450D01*
X136996456Y-83195500D01*
X134729289Y-83195500D01*
X134645236Y-83069706D01*
X134481294Y-82905764D01*
X134288519Y-82776956D01*
X134074318Y-82688231D01*
X133846924Y-82643000D01*
X133615076Y-82643000D01*
X133387682Y-82688231D01*
X133173481Y-82776956D01*
X132980706Y-82905764D01*
X132816764Y-83069706D01*
X132699500Y-83245204D01*
X132699500Y-81854796D01*
X132816764Y-82030294D01*
X132980706Y-82194236D01*
X133173481Y-82323044D01*
X133387682Y-82411769D01*
X133615076Y-82457000D01*
X133846924Y-82457000D01*
X134074318Y-82411769D01*
X134288519Y-82323044D01*
X134481294Y-82194236D01*
X134645236Y-82030294D01*
X134715925Y-81924500D01*
X135138040Y-81924500D01*
X135486886Y-82273347D01*
X135507065Y-82297935D01*
X135605203Y-82378475D01*
X135717167Y-82438321D01*
X135838655Y-82475174D01*
X135965000Y-82487618D01*
X135996657Y-82484500D01*
X136996456Y-82484500D01*
X137016794Y-82522550D01*
X137057657Y-82572343D01*
X137107450Y-82613206D01*
X137164257Y-82643570D01*
X137225897Y-82662268D01*
X137290000Y-82668582D01*
X139290000Y-82668582D01*
X139354103Y-82662268D01*
X139415743Y-82643570D01*
X139472550Y-82613206D01*
X139522343Y-82572343D01*
X139563206Y-82522550D01*
X139593570Y-82465743D01*
X139612268Y-82404103D01*
X139618582Y-82340000D01*
X139618582Y-81340000D01*
X139612268Y-81275897D01*
X139593570Y-81214257D01*
X139563206Y-81157450D01*
X139522343Y-81107657D01*
X139472550Y-81066794D01*
X139415743Y-81036430D01*
X139354103Y-81017732D01*
X139290000Y-81011418D01*
X137290000Y-81011418D01*
X137225897Y-81017732D01*
X137164257Y-81036430D01*
X137107450Y-81066794D01*
X137057657Y-81107657D01*
X137016794Y-81157450D01*
X136996456Y-81195500D01*
X136231961Y-81195500D01*
X135883118Y-80846658D01*
X135862935Y-80822065D01*
X135764797Y-80741525D01*
X135652833Y-80681679D01*
X135531344Y-80644826D01*
X135436657Y-80635500D01*
X135436649Y-80635500D01*
X135405000Y-80632383D01*
X135373351Y-80635500D01*
X134715925Y-80635500D01*
X134645236Y-80529706D01*
X134481294Y-80365764D01*
X134288519Y-80236956D01*
X134074318Y-80148231D01*
X133846924Y-80103000D01*
X133615076Y-80103000D01*
X133387682Y-80148231D01*
X133173481Y-80236956D01*
X132980706Y-80365764D01*
X132816764Y-80529706D01*
X132699500Y-80705204D01*
X132699500Y-79314796D01*
X132816764Y-79490294D01*
X132980706Y-79654236D01*
X133173481Y-79783044D01*
X133387682Y-79871769D01*
X133615076Y-79917000D01*
X133846924Y-79917000D01*
X134074318Y-79871769D01*
X134288519Y-79783044D01*
X134481294Y-79654236D01*
X134552035Y-79583495D01*
X135241886Y-80273347D01*
X135262065Y-80297935D01*
X135360203Y-80378475D01*
X135408150Y-80404103D01*
X135472167Y-80438321D01*
X135593655Y-80475174D01*
X135605080Y-80476299D01*
X135688343Y-80484500D01*
X135688350Y-80484500D01*
X135720000Y-80487617D01*
X135751649Y-80484500D01*
X136996456Y-80484500D01*
X137016794Y-80522550D01*
X137057657Y-80572343D01*
X137107450Y-80613206D01*
X137164257Y-80643570D01*
X137225897Y-80662268D01*
X137290000Y-80668582D01*
X139290000Y-80668582D01*
X139354103Y-80662268D01*
X139415743Y-80643570D01*
X139472550Y-80613206D01*
X139522343Y-80572343D01*
X139563206Y-80522550D01*
X139593570Y-80465743D01*
X139612268Y-80404103D01*
X139618582Y-80340000D01*
X139618582Y-79340000D01*
X139612268Y-79275897D01*
X139593570Y-79214257D01*
X139563206Y-79157450D01*
X139522343Y-79107657D01*
X139472550Y-79066794D01*
X139415743Y-79036430D01*
X139354103Y-79017732D01*
X139290000Y-79011418D01*
X137290000Y-79011418D01*
X137225897Y-79017732D01*
X137164257Y-79036430D01*
X137107450Y-79066794D01*
X137057657Y-79107657D01*
X137016794Y-79157450D01*
X136996456Y-79195500D01*
X135986961Y-79195500D01*
X135269035Y-78477575D01*
X135339343Y-78484500D01*
X135339350Y-78484500D01*
X135370999Y-78487617D01*
X135402649Y-78484500D01*
X136996456Y-78484500D01*
X137016794Y-78522550D01*
X137057657Y-78572343D01*
X137107450Y-78613206D01*
X137164257Y-78643570D01*
X137225897Y-78662268D01*
X137290000Y-78668582D01*
X139290000Y-78668582D01*
X139354103Y-78662268D01*
X139415743Y-78643570D01*
X139472550Y-78613206D01*
X139522343Y-78572343D01*
X139563206Y-78522550D01*
X139593570Y-78465743D01*
X139612268Y-78404103D01*
X139618582Y-78340000D01*
X139618582Y-77340000D01*
X139612268Y-77275897D01*
X139593570Y-77214257D01*
X139563206Y-77157450D01*
X139522343Y-77107657D01*
X139472550Y-77066794D01*
X139415743Y-77036430D01*
X139354103Y-77017732D01*
X139290000Y-77011418D01*
X137290000Y-77011418D01*
X137225897Y-77017732D01*
X137164257Y-77036430D01*
X137107450Y-77066794D01*
X137057657Y-77107657D01*
X137016794Y-77157450D01*
X136996456Y-77195500D01*
X135637961Y-77195500D01*
X134883177Y-76440717D01*
X134908000Y-76315924D01*
X134908000Y-76084076D01*
X134862769Y-75856682D01*
X134774044Y-75642481D01*
X134645236Y-75449706D01*
X134481294Y-75285764D01*
X134288519Y-75156956D01*
X134074318Y-75068231D01*
X133846924Y-75023000D01*
X133615076Y-75023000D01*
X133387682Y-75068231D01*
X133173481Y-75156956D01*
X132980706Y-75285764D01*
X132816764Y-75449706D01*
X132699500Y-75625204D01*
X132699500Y-74234796D01*
X132816764Y-74410294D01*
X132980706Y-74574236D01*
X133173481Y-74703044D01*
X133387682Y-74791769D01*
X133615076Y-74837000D01*
X133846924Y-74837000D01*
X134074318Y-74791769D01*
X134288519Y-74703044D01*
X134481294Y-74574236D01*
X134645236Y-74410294D01*
X134715925Y-74304500D01*
X134988040Y-74304500D01*
X136956886Y-76273347D01*
X136961418Y-76278869D01*
X136961418Y-76340000D01*
X136967732Y-76404103D01*
X136986430Y-76465743D01*
X137016794Y-76522550D01*
X137057657Y-76572343D01*
X137107450Y-76613206D01*
X137164257Y-76643570D01*
X137225897Y-76662268D01*
X137290000Y-76668582D01*
X139290000Y-76668582D01*
X139354103Y-76662268D01*
X139415743Y-76643570D01*
X139472550Y-76613206D01*
X139522343Y-76572343D01*
X139563206Y-76522550D01*
X139593570Y-76465743D01*
X139612268Y-76404103D01*
X139618582Y-76340000D01*
X139618582Y-75340000D01*
X139612268Y-75275897D01*
X139593570Y-75214257D01*
X139563206Y-75157450D01*
X139522343Y-75107657D01*
X139472550Y-75066794D01*
X139415743Y-75036430D01*
X139354103Y-75017732D01*
X139290000Y-75011418D01*
X137517879Y-75011418D01*
X137133695Y-74627234D01*
X137164257Y-74643570D01*
X137225897Y-74662268D01*
X137290000Y-74668582D01*
X139290000Y-74668582D01*
X139354103Y-74662268D01*
X139415743Y-74643570D01*
X139472550Y-74613206D01*
X139522343Y-74572343D01*
X139563206Y-74522550D01*
X139593570Y-74465743D01*
X139612268Y-74404103D01*
X139618582Y-74340000D01*
X139618582Y-73340000D01*
X139612268Y-73275897D01*
X139593570Y-73214257D01*
X139563206Y-73157450D01*
X139522343Y-73107657D01*
X139472550Y-73066794D01*
X139415743Y-73036430D01*
X139354103Y-73017732D01*
X139290000Y-73011418D01*
X137422879Y-73011418D01*
X137388641Y-72977181D01*
X137623250Y-72975000D01*
X137782000Y-72816250D01*
X137782000Y-72213000D01*
X138798000Y-72213000D01*
X138798000Y-72816250D01*
X138956750Y-72975000D01*
X139282312Y-72978026D01*
X139406933Y-72967266D01*
X139527059Y-72932401D01*
X139638076Y-72874770D01*
X139735716Y-72796588D01*
X139816228Y-72700860D01*
X139876517Y-72591264D01*
X139914266Y-72472013D01*
X139925000Y-72371750D01*
X139766250Y-72213000D01*
X138798000Y-72213000D01*
X137782000Y-72213000D01*
X136813750Y-72213000D01*
X136719105Y-72307645D01*
X135719710Y-71308250D01*
X136655000Y-71308250D01*
X136813750Y-71467000D01*
X137782000Y-71467000D01*
X137782000Y-70863750D01*
X138798000Y-70863750D01*
X138798000Y-71467000D01*
X139766250Y-71467000D01*
X139925000Y-71308250D01*
X139914266Y-71207987D01*
X139876517Y-71088736D01*
X139816228Y-70979140D01*
X139735716Y-70883412D01*
X139638076Y-70805230D01*
X139527059Y-70747599D01*
X139406933Y-70712734D01*
X139282312Y-70701974D01*
X138956750Y-70705000D01*
X138798000Y-70863750D01*
X137782000Y-70863750D01*
X137623250Y-70705000D01*
X137297688Y-70701974D01*
X137173067Y-70712734D01*
X137052941Y-70747599D01*
X136941924Y-70805230D01*
X136844284Y-70883412D01*
X136763772Y-70979140D01*
X136703483Y-71088736D01*
X136665734Y-71207987D01*
X136655000Y-71308250D01*
X135719710Y-71308250D01*
X135098118Y-70686658D01*
X135077935Y-70662065D01*
X134979797Y-70581525D01*
X134867833Y-70521679D01*
X134746344Y-70484826D01*
X134720453Y-70482276D01*
X134645236Y-70369706D01*
X134481294Y-70205764D01*
X134288519Y-70076956D01*
X134239002Y-70056445D01*
X134239002Y-69906252D01*
X134397750Y-70065000D01*
X134581000Y-70068072D01*
X134705482Y-70055812D01*
X134825180Y-70019502D01*
X134935494Y-69960537D01*
X135032185Y-69881185D01*
X135111537Y-69784494D01*
X135170502Y-69674180D01*
X135206812Y-69554482D01*
X135219072Y-69430000D01*
X135216000Y-69246750D01*
X135057250Y-69088000D01*
X134239000Y-69088000D01*
X134239000Y-69108000D01*
X133223000Y-69108000D01*
X133223000Y-69088000D01*
X133203000Y-69088000D01*
X133203000Y-68072000D01*
X133223000Y-68072000D01*
X133223000Y-67253750D01*
X134239000Y-67253750D01*
X134239000Y-68072000D01*
X135057250Y-68072000D01*
X135216000Y-67913250D01*
X135219072Y-67730000D01*
X135206812Y-67605518D01*
X135170502Y-67485820D01*
X135111537Y-67375506D01*
X135032185Y-67278815D01*
X134935494Y-67199463D01*
X134825180Y-67140498D01*
X134705482Y-67104188D01*
X134581000Y-67091928D01*
X134397750Y-67095000D01*
X134239000Y-67253750D01*
X133223000Y-67253750D01*
X133064250Y-67095000D01*
X132881000Y-67091928D01*
X132756518Y-67104188D01*
X132699500Y-67121484D01*
X132699500Y-66054772D01*
X132707263Y-65975598D01*
X132725964Y-65913658D01*
X132756343Y-65856523D01*
X132797240Y-65806377D01*
X132847099Y-65765131D01*
X132904019Y-65734354D01*
X132965834Y-65715220D01*
X133044034Y-65707000D01*
X159814728Y-65707000D01*
X159893902Y-65714763D01*
%TA.AperFunction,Conductor*%
D19*
G36*
X159893902Y-65714763D02*
G01*
X159955842Y-65733464D01*
X160012977Y-65763843D01*
X160063123Y-65804740D01*
X160104369Y-65854599D01*
X160135146Y-65911519D01*
X160154280Y-65973334D01*
X160162501Y-66051544D01*
X160162501Y-67456233D01*
X160106743Y-67426430D01*
X160045103Y-67407732D01*
X159981000Y-67401418D01*
X158281000Y-67401418D01*
X158216897Y-67407732D01*
X158155257Y-67426430D01*
X158098450Y-67456794D01*
X158048657Y-67497657D01*
X158007794Y-67547450D01*
X157977430Y-67604257D01*
X157958732Y-67665897D01*
X157952418Y-67730000D01*
X157952418Y-67955818D01*
X157867167Y-67981679D01*
X157755203Y-68041525D01*
X157657065Y-68122065D01*
X157636886Y-68146653D01*
X154772122Y-71011418D01*
X153290000Y-71011418D01*
X153225897Y-71017732D01*
X153164257Y-71036430D01*
X153107450Y-71066794D01*
X153057657Y-71107657D01*
X153016794Y-71157450D01*
X152986430Y-71214257D01*
X152967732Y-71275897D01*
X152961418Y-71340000D01*
X152961418Y-72340000D01*
X152967732Y-72404103D01*
X152986430Y-72465743D01*
X153016794Y-72522550D01*
X153057657Y-72572343D01*
X153107450Y-72613206D01*
X153164257Y-72643570D01*
X153225897Y-72662268D01*
X153290000Y-72668582D01*
X155290000Y-72668582D01*
X155354103Y-72662268D01*
X155415743Y-72643570D01*
X155472550Y-72613206D01*
X155522343Y-72572343D01*
X155563206Y-72522550D01*
X155593570Y-72465743D01*
X155612268Y-72404103D01*
X155618582Y-72340000D01*
X155618582Y-71987878D01*
X158002958Y-69603503D01*
X158007794Y-69612550D01*
X158048657Y-69662343D01*
X158098450Y-69703206D01*
X158155257Y-69733570D01*
X158216897Y-69752268D01*
X158281000Y-69758582D01*
X159981000Y-69758582D01*
X160045103Y-69752268D01*
X160106743Y-69733570D01*
X160162501Y-69703767D01*
X160162501Y-70545205D01*
X160045236Y-70369706D01*
X159881294Y-70205764D01*
X159688519Y-70076956D01*
X159474318Y-69988231D01*
X159246924Y-69943000D01*
X159015076Y-69943000D01*
X158787682Y-69988231D01*
X158573481Y-70076956D01*
X158380706Y-70205764D01*
X158216764Y-70369706D01*
X158146110Y-70475447D01*
X158115000Y-70472383D01*
X158083350Y-70475500D01*
X158083343Y-70475500D01*
X158000080Y-70483701D01*
X157988655Y-70484826D01*
X157867167Y-70521679D01*
X157755203Y-70581525D01*
X157657065Y-70662065D01*
X157636886Y-70686653D01*
X155310138Y-73013402D01*
X155290000Y-73011418D01*
X153290000Y-73011418D01*
X153225897Y-73017732D01*
X153164257Y-73036430D01*
X153107450Y-73066794D01*
X153057657Y-73107657D01*
X153016794Y-73157450D01*
X152986430Y-73214257D01*
X152967732Y-73275897D01*
X152961418Y-73340000D01*
X152961418Y-74340000D01*
X152967732Y-74404103D01*
X152986430Y-74465743D01*
X153016794Y-74522550D01*
X153057657Y-74572343D01*
X153107450Y-74613206D01*
X153164257Y-74643570D01*
X153225897Y-74662268D01*
X153290000Y-74668582D01*
X155290000Y-74668582D01*
X155354103Y-74662268D01*
X155415743Y-74643570D01*
X155472550Y-74613206D01*
X155522343Y-74572343D01*
X155563206Y-74522550D01*
X155593570Y-74465743D01*
X155597739Y-74452000D01*
X155642833Y-74438321D01*
X155754797Y-74378475D01*
X155852935Y-74297935D01*
X155873118Y-74273342D01*
X158246465Y-71899995D01*
X158380706Y-72034236D01*
X158573481Y-72163044D01*
X158787682Y-72251769D01*
X159015076Y-72297000D01*
X159246924Y-72297000D01*
X159474318Y-72251769D01*
X159688519Y-72163044D01*
X159881294Y-72034236D01*
X160045236Y-71870294D01*
X160162501Y-71694795D01*
X160162501Y-73085205D01*
X160045236Y-72909706D01*
X159881294Y-72745764D01*
X159688519Y-72616956D01*
X159474318Y-72528231D01*
X159246924Y-72483000D01*
X159015076Y-72483000D01*
X158787682Y-72528231D01*
X158573481Y-72616956D01*
X158380706Y-72745764D01*
X158216764Y-72909706D01*
X158146075Y-73015500D01*
X157511657Y-73015500D01*
X157480000Y-73012382D01*
X157353655Y-73024826D01*
X157315402Y-73036430D01*
X157232167Y-73061679D01*
X157120203Y-73121525D01*
X157022065Y-73202065D01*
X157001886Y-73226653D01*
X155217122Y-75011418D01*
X153290000Y-75011418D01*
X153225897Y-75017732D01*
X153164257Y-75036430D01*
X153107450Y-75066794D01*
X153057657Y-75107657D01*
X153016794Y-75157450D01*
X152986430Y-75214257D01*
X152967732Y-75275897D01*
X152961418Y-75340000D01*
X152961418Y-76340000D01*
X152967732Y-76404103D01*
X152986430Y-76465743D01*
X153016794Y-76522550D01*
X153057657Y-76572343D01*
X153107450Y-76613206D01*
X153164257Y-76643570D01*
X153225897Y-76662268D01*
X153290000Y-76668582D01*
X155290000Y-76668582D01*
X155354103Y-76662268D01*
X155415743Y-76643570D01*
X155472550Y-76613206D01*
X155522343Y-76572343D01*
X155563206Y-76522550D01*
X155593570Y-76465743D01*
X155612268Y-76404103D01*
X155612291Y-76403867D01*
X155659797Y-76378475D01*
X155757935Y-76297935D01*
X155778118Y-76273342D01*
X157746961Y-74304500D01*
X158146075Y-74304500D01*
X158216764Y-74410294D01*
X158380706Y-74574236D01*
X158573481Y-74703044D01*
X158787682Y-74791769D01*
X159015076Y-74837000D01*
X159246924Y-74837000D01*
X159474318Y-74791769D01*
X159688519Y-74703044D01*
X159881294Y-74574236D01*
X160045236Y-74410294D01*
X160162501Y-74234795D01*
X160162501Y-75625205D01*
X160045236Y-75449706D01*
X159881294Y-75285764D01*
X159688519Y-75156956D01*
X159474318Y-75068231D01*
X159246924Y-75023000D01*
X159015076Y-75023000D01*
X158787682Y-75068231D01*
X158573481Y-75156956D01*
X158380706Y-75285764D01*
X158216764Y-75449706D01*
X158146110Y-75555447D01*
X158114999Y-75552383D01*
X158083350Y-75555500D01*
X158083343Y-75555500D01*
X158001216Y-75563589D01*
X157988655Y-75564826D01*
X157898524Y-75592167D01*
X157867167Y-75601679D01*
X157755203Y-75661525D01*
X157755201Y-75661526D01*
X157755202Y-75661526D01*
X157691683Y-75713655D01*
X157657065Y-75742065D01*
X157636886Y-75766653D01*
X156208040Y-77195500D01*
X155583544Y-77195500D01*
X155563206Y-77157450D01*
X155522343Y-77107657D01*
X155472550Y-77066794D01*
X155415743Y-77036430D01*
X155354103Y-77017732D01*
X155290000Y-77011418D01*
X153290000Y-77011418D01*
X153225897Y-77017732D01*
X153164257Y-77036430D01*
X153107450Y-77066794D01*
X153057657Y-77107657D01*
X153016794Y-77157450D01*
X152986430Y-77214257D01*
X152967732Y-77275897D01*
X152961418Y-77340000D01*
X152961418Y-78340000D01*
X152967732Y-78404103D01*
X152986430Y-78465743D01*
X153016794Y-78522550D01*
X153057657Y-78572343D01*
X153107450Y-78613206D01*
X153164257Y-78643570D01*
X153225897Y-78662268D01*
X153290000Y-78668582D01*
X155290000Y-78668582D01*
X155354103Y-78662268D01*
X155415743Y-78643570D01*
X155472550Y-78613206D01*
X155522343Y-78572343D01*
X155563206Y-78522550D01*
X155583544Y-78484500D01*
X156443351Y-78484500D01*
X156475000Y-78487617D01*
X156506649Y-78484500D01*
X156506657Y-78484500D01*
X156601344Y-78475174D01*
X156722833Y-78438321D01*
X156834797Y-78378475D01*
X156932935Y-78297935D01*
X156953118Y-78273342D01*
X158246465Y-76979995D01*
X158380706Y-77114236D01*
X158573481Y-77243044D01*
X158787682Y-77331769D01*
X159015076Y-77377000D01*
X159246924Y-77377000D01*
X159474318Y-77331769D01*
X159688519Y-77243044D01*
X159881294Y-77114236D01*
X160045236Y-76950294D01*
X160162501Y-76774795D01*
X160162501Y-78165205D01*
X160045236Y-77989706D01*
X159881294Y-77825764D01*
X159688519Y-77696956D01*
X159474318Y-77608231D01*
X159246924Y-77563000D01*
X159015076Y-77563000D01*
X158787682Y-77608231D01*
X158573481Y-77696956D01*
X158380706Y-77825764D01*
X158216764Y-77989706D01*
X158146110Y-78095447D01*
X158115000Y-78092383D01*
X158083350Y-78095500D01*
X158083343Y-78095500D01*
X158000080Y-78103701D01*
X157988655Y-78104826D01*
X157867167Y-78141679D01*
X157755203Y-78201525D01*
X157657065Y-78282065D01*
X157636886Y-78306653D01*
X156748040Y-79195500D01*
X155583544Y-79195500D01*
X155563206Y-79157450D01*
X155522343Y-79107657D01*
X155472550Y-79066794D01*
X155415743Y-79036430D01*
X155354103Y-79017732D01*
X155290000Y-79011418D01*
X153290000Y-79011418D01*
X153225897Y-79017732D01*
X153164257Y-79036430D01*
X153107450Y-79066794D01*
X153057657Y-79107657D01*
X153016794Y-79157450D01*
X152986430Y-79214257D01*
X152967732Y-79275897D01*
X152961418Y-79340000D01*
X152961418Y-80340000D01*
X152967732Y-80404103D01*
X152986430Y-80465743D01*
X153016794Y-80522550D01*
X153057657Y-80572343D01*
X153107450Y-80613206D01*
X153164257Y-80643570D01*
X153225897Y-80662268D01*
X153290000Y-80668582D01*
X155290000Y-80668582D01*
X155354103Y-80662268D01*
X155415743Y-80643570D01*
X155472550Y-80613206D01*
X155522343Y-80572343D01*
X155563206Y-80522550D01*
X155583544Y-80484500D01*
X156983351Y-80484500D01*
X157015000Y-80487617D01*
X157046649Y-80484500D01*
X157046657Y-80484500D01*
X157141344Y-80475174D01*
X157262833Y-80438321D01*
X157374797Y-80378475D01*
X157472935Y-80297935D01*
X157493118Y-80273342D01*
X158246465Y-79519995D01*
X158380706Y-79654236D01*
X158573481Y-79783044D01*
X158787682Y-79871769D01*
X159015076Y-79917000D01*
X159246924Y-79917000D01*
X159474318Y-79871769D01*
X159688519Y-79783044D01*
X159881294Y-79654236D01*
X160045236Y-79490294D01*
X160162501Y-79314795D01*
X160162501Y-80705205D01*
X160045236Y-80529706D01*
X159881294Y-80365764D01*
X159688519Y-80236956D01*
X159474318Y-80148231D01*
X159246924Y-80103000D01*
X159015076Y-80103000D01*
X158787682Y-80148231D01*
X158573481Y-80236956D01*
X158380706Y-80365764D01*
X158216764Y-80529706D01*
X158146075Y-80635500D01*
X157511657Y-80635500D01*
X157480000Y-80632382D01*
X157353655Y-80644826D01*
X157275342Y-80668582D01*
X157232167Y-80681679D01*
X157120203Y-80741525D01*
X157022065Y-80822065D01*
X157001886Y-80846653D01*
X156653040Y-81195500D01*
X155583544Y-81195500D01*
X155563206Y-81157450D01*
X155522343Y-81107657D01*
X155472550Y-81066794D01*
X155415743Y-81036430D01*
X155354103Y-81017732D01*
X155290000Y-81011418D01*
X153290000Y-81011418D01*
X153225897Y-81017732D01*
X153164257Y-81036430D01*
X153107450Y-81066794D01*
X153057657Y-81107657D01*
X153016794Y-81157450D01*
X152986430Y-81214257D01*
X152967732Y-81275897D01*
X152961418Y-81340000D01*
X152961418Y-82340000D01*
X152967732Y-82404103D01*
X152986430Y-82465743D01*
X153016794Y-82522550D01*
X153057657Y-82572343D01*
X153107450Y-82613206D01*
X153164257Y-82643570D01*
X153225897Y-82662268D01*
X153290000Y-82668582D01*
X155290000Y-82668582D01*
X155354103Y-82662268D01*
X155415743Y-82643570D01*
X155472550Y-82613206D01*
X155522343Y-82572343D01*
X155563206Y-82522550D01*
X155583544Y-82484500D01*
X156888351Y-82484500D01*
X156920000Y-82487617D01*
X156951649Y-82484500D01*
X156951657Y-82484500D01*
X157046344Y-82475174D01*
X157167833Y-82438321D01*
X157279797Y-82378475D01*
X157377935Y-82297935D01*
X157398118Y-82273342D01*
X157746961Y-81924500D01*
X158146075Y-81924500D01*
X158216764Y-82030294D01*
X158380706Y-82194236D01*
X158573481Y-82323044D01*
X158622998Y-82343555D01*
X158622998Y-82583321D01*
X158410961Y-82521221D01*
X158171417Y-82686649D01*
X157968749Y-82895631D01*
X157832241Y-83099965D01*
X157905898Y-83312000D01*
X158623000Y-83312000D01*
X158623000Y-83292000D01*
X159639000Y-83292000D01*
X159639000Y-83312000D01*
X159659000Y-83312000D01*
X159659000Y-84328000D01*
X159639000Y-84328000D01*
X159639000Y-84348000D01*
X158623000Y-84348000D01*
X158623000Y-84328000D01*
X157905898Y-84328000D01*
X157832241Y-84540035D01*
X157968749Y-84744369D01*
X158171417Y-84953351D01*
X158410961Y-85118779D01*
X158622998Y-85056679D01*
X158622998Y-85296445D01*
X158573481Y-85316956D01*
X158380706Y-85445764D01*
X158216764Y-85609706D01*
X158087956Y-85802481D01*
X157999231Y-86016682D01*
X157954000Y-86244076D01*
X157954000Y-86475924D01*
X157999231Y-86703318D01*
X158087956Y-86917519D01*
X158216764Y-87110294D01*
X158380706Y-87274236D01*
X158573481Y-87403044D01*
X158787682Y-87491769D01*
X159015076Y-87537000D01*
X159246924Y-87537000D01*
X159474318Y-87491769D01*
X159688519Y-87403044D01*
X159881294Y-87274236D01*
X160045236Y-87110294D01*
X160162500Y-86934795D01*
X160162500Y-97140229D01*
X160154738Y-97219398D01*
X160136035Y-97281345D01*
X160105657Y-97338477D01*
X160064758Y-97388624D01*
X160014901Y-97429869D01*
X159957982Y-97460645D01*
X159896166Y-97479780D01*
X159817966Y-97488000D01*
X133047271Y-97488000D01*
X132968102Y-97480238D01*
X132906155Y-97461535D01*
X132849023Y-97431157D01*
X132798876Y-97390258D01*
X132757631Y-97340401D01*
X132726855Y-97283482D01*
X132707720Y-97221666D01*
X132699500Y-97143466D01*
X132699500Y-97103281D01*
X151011140Y-97103281D01*
X151130625Y-97320603D01*
X151445223Y-97389563D01*
X151767229Y-97395822D01*
X152084269Y-97339140D01*
X152145375Y-97320603D01*
X152264860Y-97103281D01*
X156091140Y-97103281D01*
X156210625Y-97320603D01*
X156525223Y-97389563D01*
X156847229Y-97395822D01*
X157164269Y-97339140D01*
X157225375Y-97320603D01*
X157344860Y-97103281D01*
X156718000Y-96476420D01*
X156091140Y-97103281D01*
X152264860Y-97103281D01*
X151638000Y-96476420D01*
X151011140Y-97103281D01*
X132699500Y-97103281D01*
X132699500Y-95887229D01*
X150000178Y-95887229D01*
X150056860Y-96204269D01*
X150075397Y-96265375D01*
X150292719Y-96384860D01*
X150919580Y-95758000D01*
X152356420Y-95758000D01*
X152983281Y-96384860D01*
X153200603Y-96265375D01*
X153269563Y-95950777D01*
X153270798Y-95887229D01*
X155080178Y-95887229D01*
X155136860Y-96204269D01*
X155155397Y-96265375D01*
X155372719Y-96384860D01*
X155999580Y-95758000D01*
X157436420Y-95758000D01*
X158063281Y-96384860D01*
X158280603Y-96265375D01*
X158349563Y-95950777D01*
X158355822Y-95628771D01*
X158299140Y-95311731D01*
X158280603Y-95250625D01*
X158063281Y-95131140D01*
X157436420Y-95758000D01*
X155999580Y-95758000D01*
X155372719Y-95131140D01*
X155155397Y-95250625D01*
X155086437Y-95565223D01*
X155080178Y-95887229D01*
X153270798Y-95887229D01*
X153275822Y-95628771D01*
X153219140Y-95311731D01*
X153200603Y-95250625D01*
X152983281Y-95131140D01*
X152356420Y-95758000D01*
X150919580Y-95758000D01*
X150292719Y-95131140D01*
X150075397Y-95250625D01*
X150006437Y-95565223D01*
X150000178Y-95887229D01*
X132699500Y-95887229D01*
X132699500Y-94412719D01*
X151011140Y-94412719D01*
X151638000Y-95039580D01*
X152264860Y-94412719D01*
X152145375Y-94195397D01*
X151830777Y-94126437D01*
X151508771Y-94120178D01*
X151191731Y-94176860D01*
X151130625Y-94195397D01*
X151011140Y-94412719D01*
X132699500Y-94412719D01*
X132699500Y-93087302D01*
X152851000Y-93087302D01*
X152851000Y-93348698D01*
X152901996Y-93605072D01*
X153002028Y-93846570D01*
X153147252Y-94063913D01*
X153332087Y-94248748D01*
X153549430Y-94393972D01*
X153790928Y-94494004D01*
X154047302Y-94545000D01*
X154308698Y-94545000D01*
X154565072Y-94494004D01*
X154761310Y-94412719D01*
X156091140Y-94412719D01*
X156718000Y-95039580D01*
X157344860Y-94412719D01*
X157225375Y-94195397D01*
X156910777Y-94126437D01*
X156588771Y-94120178D01*
X156271731Y-94176860D01*
X156210625Y-94195397D01*
X156091140Y-94412719D01*
X154761310Y-94412719D01*
X154806570Y-94393972D01*
X155023913Y-94248748D01*
X155208748Y-94063913D01*
X155353972Y-93846570D01*
X155454004Y-93605072D01*
X155505000Y-93348698D01*
X155505000Y-93087302D01*
X155454004Y-92830928D01*
X155353972Y-92589430D01*
X155208748Y-92372087D01*
X155117000Y-92280339D01*
X155117000Y-92023281D01*
X156091140Y-92023281D01*
X156210625Y-92240603D01*
X156525223Y-92309563D01*
X156847229Y-92315822D01*
X157164269Y-92259140D01*
X157225375Y-92240603D01*
X157344860Y-92023281D01*
X156718000Y-91396420D01*
X156091140Y-92023281D01*
X155117000Y-92023281D01*
X155117000Y-91013186D01*
X155136860Y-91124269D01*
X155155397Y-91185375D01*
X155372719Y-91304860D01*
X155999580Y-90678000D01*
X157436420Y-90678000D01*
X158063281Y-91304860D01*
X158280603Y-91185375D01*
X158349563Y-90870777D01*
X158355822Y-90548771D01*
X158299140Y-90231731D01*
X158280603Y-90170625D01*
X158063281Y-90051140D01*
X157436420Y-90678000D01*
X155999580Y-90678000D01*
X155372719Y-90051140D01*
X155155397Y-90170625D01*
X155117000Y-90345793D01*
X155117000Y-89332719D01*
X156091140Y-89332719D01*
X156718000Y-89959580D01*
X157344860Y-89332719D01*
X157225375Y-89115397D01*
X156910777Y-89046437D01*
X156588771Y-89040178D01*
X156271731Y-89096860D01*
X156210625Y-89115397D01*
X156091140Y-89332719D01*
X155117000Y-89332719D01*
X155117000Y-86668582D01*
X155290000Y-86668582D01*
X155354103Y-86662268D01*
X155415743Y-86643570D01*
X155472550Y-86613206D01*
X155522343Y-86572343D01*
X155563206Y-86522550D01*
X155593570Y-86465743D01*
X155612268Y-86404103D01*
X155618582Y-86340000D01*
X155618582Y-85340000D01*
X155612268Y-85275897D01*
X155593570Y-85214257D01*
X155563206Y-85157450D01*
X155522343Y-85107657D01*
X155472550Y-85066794D01*
X155415743Y-85036430D01*
X155354103Y-85017732D01*
X155290000Y-85011418D01*
X154314561Y-85011418D01*
X154290000Y-85008999D01*
X154265439Y-85011418D01*
X153290000Y-85011418D01*
X153225897Y-85017732D01*
X153164257Y-85036430D01*
X153107450Y-85066794D01*
X153057657Y-85107657D01*
X153016794Y-85157450D01*
X152986430Y-85214257D01*
X152967732Y-85275897D01*
X152961418Y-85340000D01*
X152961418Y-86340000D01*
X152967732Y-86404103D01*
X152986430Y-86465743D01*
X153016794Y-86522550D01*
X153057657Y-86572343D01*
X153107450Y-86613206D01*
X153164257Y-86643570D01*
X153225897Y-86662268D01*
X153290000Y-86668582D01*
X153463000Y-86668582D01*
X153463001Y-92099778D01*
X153332087Y-92187252D01*
X153147252Y-92372087D01*
X153002028Y-92589430D01*
X152901996Y-92830928D01*
X152851000Y-93087302D01*
X132699500Y-93087302D01*
X132699500Y-92023281D01*
X151011140Y-92023281D01*
X151130625Y-92240603D01*
X151445223Y-92309563D01*
X151767229Y-92315822D01*
X152084269Y-92259140D01*
X152145375Y-92240603D01*
X152264860Y-92023281D01*
X151638000Y-91396420D01*
X151011140Y-92023281D01*
X132699500Y-92023281D01*
X132699500Y-90807229D01*
X150000178Y-90807229D01*
X150056860Y-91124269D01*
X150075397Y-91185375D01*
X150292719Y-91304860D01*
X150919580Y-90678000D01*
X152356420Y-90678000D01*
X152983281Y-91304860D01*
X153200603Y-91185375D01*
X153269563Y-90870777D01*
X153275822Y-90548771D01*
X153219140Y-90231731D01*
X153200603Y-90170625D01*
X152983281Y-90051140D01*
X152356420Y-90678000D01*
X150919580Y-90678000D01*
X150292719Y-90051140D01*
X150075397Y-90170625D01*
X150006437Y-90485223D01*
X150000178Y-90807229D01*
X132699500Y-90807229D01*
X132699500Y-89332719D01*
X151011140Y-89332719D01*
X151638000Y-89959580D01*
X152264860Y-89332719D01*
X152145375Y-89115397D01*
X151830777Y-89046437D01*
X151508771Y-89040178D01*
X151191731Y-89096860D01*
X151130625Y-89115397D01*
X151011140Y-89332719D01*
X132699500Y-89332719D01*
X132699500Y-87419193D01*
X132771417Y-87493351D01*
X133010961Y-87658779D01*
X133223000Y-87596678D01*
X133223000Y-86868000D01*
X134239000Y-86868000D01*
X134239000Y-87596678D01*
X134451039Y-87658779D01*
X134690583Y-87493351D01*
X134893251Y-87284369D01*
X135029759Y-87080035D01*
X134956102Y-86868000D01*
X134239000Y-86868000D01*
X133223000Y-86868000D01*
X133203000Y-86868000D01*
X133203000Y-86371750D01*
X136655000Y-86371750D01*
X136665734Y-86472013D01*
X136703483Y-86591264D01*
X136763772Y-86700860D01*
X136844284Y-86796588D01*
X136941924Y-86874770D01*
X137052941Y-86932401D01*
X137173067Y-86967266D01*
X137297688Y-86978026D01*
X137623250Y-86975000D01*
X137782000Y-86816250D01*
X137782000Y-86213000D01*
X138798000Y-86213000D01*
X138798000Y-86816250D01*
X138956750Y-86975000D01*
X139282312Y-86978026D01*
X139406933Y-86967266D01*
X139527059Y-86932401D01*
X139638076Y-86874770D01*
X139735716Y-86796588D01*
X139816228Y-86700860D01*
X139876517Y-86591264D01*
X139914266Y-86472013D01*
X139925000Y-86371750D01*
X139766250Y-86213000D01*
X138798000Y-86213000D01*
X137782000Y-86213000D01*
X136813750Y-86213000D01*
X136655000Y-86371750D01*
X133203000Y-86371750D01*
X133203000Y-85852000D01*
X133223000Y-85852000D01*
X133223000Y-85832000D01*
X134239000Y-85832000D01*
X134239000Y-85852000D01*
X134956102Y-85852000D01*
X135029759Y-85639965D01*
X134893251Y-85435631D01*
X134769719Y-85308250D01*
X136655000Y-85308250D01*
X136813750Y-85467000D01*
X137782000Y-85467000D01*
X137782000Y-84863750D01*
X138798000Y-84863750D01*
X138798000Y-85467000D01*
X139766250Y-85467000D01*
X139925000Y-85308250D01*
X139914266Y-85207987D01*
X139876517Y-85088736D01*
X139816228Y-84979140D01*
X139735716Y-84883412D01*
X139638076Y-84805230D01*
X139527059Y-84747599D01*
X139406933Y-84712734D01*
X139282312Y-84701974D01*
X138956750Y-84705000D01*
X138798000Y-84863750D01*
X137782000Y-84863750D01*
X137623250Y-84705000D01*
X137297688Y-84701974D01*
X137173067Y-84712734D01*
X137052941Y-84747599D01*
X136941924Y-84805230D01*
X136844284Y-84883412D01*
X136763772Y-84979140D01*
X136703483Y-85088736D01*
X136665734Y-85207987D01*
X136655000Y-85308250D01*
X134769719Y-85308250D01*
X134690583Y-85226649D01*
X134451039Y-85061221D01*
X134239002Y-85123321D01*
X134239002Y-84883555D01*
X134288519Y-84863044D01*
X134481294Y-84734236D01*
X134645236Y-84570294D01*
X134702562Y-84484500D01*
X136996456Y-84484500D01*
X137016794Y-84522550D01*
X137057657Y-84572343D01*
X137107450Y-84613206D01*
X137164257Y-84643570D01*
X137225897Y-84662268D01*
X137290000Y-84668582D01*
X139290000Y-84668582D01*
X139354103Y-84662268D01*
X139415743Y-84643570D01*
X139472550Y-84613206D01*
X139522343Y-84572343D01*
X139563206Y-84522550D01*
X139593570Y-84465743D01*
X139612268Y-84404103D01*
X139615454Y-84371750D01*
X152655000Y-84371750D01*
X152665734Y-84472013D01*
X152703483Y-84591264D01*
X152763772Y-84700860D01*
X152844284Y-84796588D01*
X152941924Y-84874770D01*
X153052941Y-84932401D01*
X153173067Y-84967266D01*
X153297688Y-84978026D01*
X153623250Y-84975000D01*
X153782000Y-84816250D01*
X153782000Y-84213000D01*
X154798000Y-84213000D01*
X154798000Y-84816250D01*
X154956750Y-84975000D01*
X155282312Y-84978026D01*
X155406933Y-84967266D01*
X155527059Y-84932401D01*
X155638076Y-84874770D01*
X155735716Y-84796588D01*
X155816228Y-84700860D01*
X155876517Y-84591264D01*
X155914266Y-84472013D01*
X155925000Y-84371750D01*
X155766250Y-84213000D01*
X154798000Y-84213000D01*
X153782000Y-84213000D01*
X152813750Y-84213000D01*
X152655000Y-84371750D01*
X139615454Y-84371750D01*
X139618582Y-84340000D01*
X139618582Y-83340000D01*
X139615455Y-83308250D01*
X152655000Y-83308250D01*
X152813750Y-83467000D01*
X153782000Y-83467000D01*
X153782000Y-82863750D01*
X154798000Y-82863750D01*
X154798000Y-83467000D01*
X155766250Y-83467000D01*
X155925000Y-83308250D01*
X155914266Y-83207987D01*
X155876517Y-83088736D01*
X155816228Y-82979140D01*
X155735716Y-82883412D01*
X155638076Y-82805230D01*
X155527059Y-82747599D01*
X155406933Y-82712734D01*
X155282312Y-82701974D01*
X154956750Y-82705000D01*
X154798000Y-82863750D01*
X153782000Y-82863750D01*
X153623250Y-82705000D01*
X153297688Y-82701974D01*
X153173067Y-82712734D01*
X153052941Y-82747599D01*
X152941924Y-82805230D01*
X152844284Y-82883412D01*
X152763772Y-82979140D01*
X152703483Y-83088736D01*
X152665734Y-83207987D01*
X152655000Y-83308250D01*
X139615455Y-83308250D01*
X139612268Y-83275897D01*
X139593570Y-83214257D01*
X139563206Y-83157450D01*
X139522343Y-83107657D01*
X139472550Y-83066794D01*
X139415743Y-83036430D01*
X139354103Y-83017732D01*
X139290000Y-83011418D01*
X137290000Y-83011418D01*
X137225897Y-83017732D01*
X137164257Y-83036430D01*
X137107450Y-83066794D01*
X137057657Y-83107657D01*
X137016794Y-83157450D01*
X136996456Y-83195500D01*
X134729289Y-83195500D01*
X134645236Y-83069706D01*
X134481294Y-82905764D01*
X134288519Y-82776956D01*
X134074318Y-82688231D01*
X133846924Y-82643000D01*
X133615076Y-82643000D01*
X133387682Y-82688231D01*
X133173481Y-82776956D01*
X132980706Y-82905764D01*
X132816764Y-83069706D01*
X132699500Y-83245204D01*
X132699500Y-81854796D01*
X132816764Y-82030294D01*
X132980706Y-82194236D01*
X133173481Y-82323044D01*
X133387682Y-82411769D01*
X133615076Y-82457000D01*
X133846924Y-82457000D01*
X134074318Y-82411769D01*
X134288519Y-82323044D01*
X134481294Y-82194236D01*
X134645236Y-82030294D01*
X134715925Y-81924500D01*
X135138040Y-81924500D01*
X135486886Y-82273347D01*
X135507065Y-82297935D01*
X135605203Y-82378475D01*
X135717167Y-82438321D01*
X135838655Y-82475174D01*
X135965000Y-82487618D01*
X135996657Y-82484500D01*
X136996456Y-82484500D01*
X137016794Y-82522550D01*
X137057657Y-82572343D01*
X137107450Y-82613206D01*
X137164257Y-82643570D01*
X137225897Y-82662268D01*
X137290000Y-82668582D01*
X139290000Y-82668582D01*
X139354103Y-82662268D01*
X139415743Y-82643570D01*
X139472550Y-82613206D01*
X139522343Y-82572343D01*
X139563206Y-82522550D01*
X139593570Y-82465743D01*
X139612268Y-82404103D01*
X139618582Y-82340000D01*
X139618582Y-81340000D01*
X139612268Y-81275897D01*
X139593570Y-81214257D01*
X139563206Y-81157450D01*
X139522343Y-81107657D01*
X139472550Y-81066794D01*
X139415743Y-81036430D01*
X139354103Y-81017732D01*
X139290000Y-81011418D01*
X137290000Y-81011418D01*
X137225897Y-81017732D01*
X137164257Y-81036430D01*
X137107450Y-81066794D01*
X137057657Y-81107657D01*
X137016794Y-81157450D01*
X136996456Y-81195500D01*
X136231961Y-81195500D01*
X135883118Y-80846658D01*
X135862935Y-80822065D01*
X135764797Y-80741525D01*
X135652833Y-80681679D01*
X135531344Y-80644826D01*
X135436657Y-80635500D01*
X135436649Y-80635500D01*
X135405000Y-80632383D01*
X135373351Y-80635500D01*
X134715925Y-80635500D01*
X134645236Y-80529706D01*
X134481294Y-80365764D01*
X134288519Y-80236956D01*
X134074318Y-80148231D01*
X133846924Y-80103000D01*
X133615076Y-80103000D01*
X133387682Y-80148231D01*
X133173481Y-80236956D01*
X132980706Y-80365764D01*
X132816764Y-80529706D01*
X132699500Y-80705204D01*
X132699500Y-79314796D01*
X132816764Y-79490294D01*
X132980706Y-79654236D01*
X133173481Y-79783044D01*
X133387682Y-79871769D01*
X133615076Y-79917000D01*
X133846924Y-79917000D01*
X134074318Y-79871769D01*
X134288519Y-79783044D01*
X134481294Y-79654236D01*
X134552035Y-79583495D01*
X135241886Y-80273347D01*
X135262065Y-80297935D01*
X135360203Y-80378475D01*
X135408150Y-80404103D01*
X135472167Y-80438321D01*
X135593655Y-80475174D01*
X135605080Y-80476299D01*
X135688343Y-80484500D01*
X135688350Y-80484500D01*
X135720000Y-80487617D01*
X135751649Y-80484500D01*
X136996456Y-80484500D01*
X137016794Y-80522550D01*
X137057657Y-80572343D01*
X137107450Y-80613206D01*
X137164257Y-80643570D01*
X137225897Y-80662268D01*
X137290000Y-80668582D01*
X139290000Y-80668582D01*
X139354103Y-80662268D01*
X139415743Y-80643570D01*
X139472550Y-80613206D01*
X139522343Y-80572343D01*
X139563206Y-80522550D01*
X139593570Y-80465743D01*
X139612268Y-80404103D01*
X139618582Y-80340000D01*
X139618582Y-79340000D01*
X139612268Y-79275897D01*
X139593570Y-79214257D01*
X139563206Y-79157450D01*
X139522343Y-79107657D01*
X139472550Y-79066794D01*
X139415743Y-79036430D01*
X139354103Y-79017732D01*
X139290000Y-79011418D01*
X137290000Y-79011418D01*
X137225897Y-79017732D01*
X137164257Y-79036430D01*
X137107450Y-79066794D01*
X137057657Y-79107657D01*
X137016794Y-79157450D01*
X136996456Y-79195500D01*
X135986961Y-79195500D01*
X135269035Y-78477575D01*
X135339343Y-78484500D01*
X135339350Y-78484500D01*
X135370999Y-78487617D01*
X135402649Y-78484500D01*
X136996456Y-78484500D01*
X137016794Y-78522550D01*
X137057657Y-78572343D01*
X137107450Y-78613206D01*
X137164257Y-78643570D01*
X137225897Y-78662268D01*
X137290000Y-78668582D01*
X139290000Y-78668582D01*
X139354103Y-78662268D01*
X139415743Y-78643570D01*
X139472550Y-78613206D01*
X139522343Y-78572343D01*
X139563206Y-78522550D01*
X139593570Y-78465743D01*
X139612268Y-78404103D01*
X139618582Y-78340000D01*
X139618582Y-77340000D01*
X139612268Y-77275897D01*
X139593570Y-77214257D01*
X139563206Y-77157450D01*
X139522343Y-77107657D01*
X139472550Y-77066794D01*
X139415743Y-77036430D01*
X139354103Y-77017732D01*
X139290000Y-77011418D01*
X137290000Y-77011418D01*
X137225897Y-77017732D01*
X137164257Y-77036430D01*
X137107450Y-77066794D01*
X137057657Y-77107657D01*
X137016794Y-77157450D01*
X136996456Y-77195500D01*
X135637961Y-77195500D01*
X134883177Y-76440717D01*
X134908000Y-76315924D01*
X134908000Y-76084076D01*
X134862769Y-75856682D01*
X134774044Y-75642481D01*
X134645236Y-75449706D01*
X134481294Y-75285764D01*
X134288519Y-75156956D01*
X134074318Y-75068231D01*
X133846924Y-75023000D01*
X133615076Y-75023000D01*
X133387682Y-75068231D01*
X133173481Y-75156956D01*
X132980706Y-75285764D01*
X132816764Y-75449706D01*
X132699500Y-75625204D01*
X132699500Y-74234796D01*
X132816764Y-74410294D01*
X132980706Y-74574236D01*
X133173481Y-74703044D01*
X133387682Y-74791769D01*
X133615076Y-74837000D01*
X133846924Y-74837000D01*
X134074318Y-74791769D01*
X134288519Y-74703044D01*
X134481294Y-74574236D01*
X134645236Y-74410294D01*
X134715925Y-74304500D01*
X134988040Y-74304500D01*
X136956886Y-76273347D01*
X136961418Y-76278869D01*
X136961418Y-76340000D01*
X136967732Y-76404103D01*
X136986430Y-76465743D01*
X137016794Y-76522550D01*
X137057657Y-76572343D01*
X137107450Y-76613206D01*
X137164257Y-76643570D01*
X137225897Y-76662268D01*
X137290000Y-76668582D01*
X139290000Y-76668582D01*
X139354103Y-76662268D01*
X139415743Y-76643570D01*
X139472550Y-76613206D01*
X139522343Y-76572343D01*
X139563206Y-76522550D01*
X139593570Y-76465743D01*
X139612268Y-76404103D01*
X139618582Y-76340000D01*
X139618582Y-75340000D01*
X139612268Y-75275897D01*
X139593570Y-75214257D01*
X139563206Y-75157450D01*
X139522343Y-75107657D01*
X139472550Y-75066794D01*
X139415743Y-75036430D01*
X139354103Y-75017732D01*
X139290000Y-75011418D01*
X137517879Y-75011418D01*
X137133695Y-74627234D01*
X137164257Y-74643570D01*
X137225897Y-74662268D01*
X137290000Y-74668582D01*
X139290000Y-74668582D01*
X139354103Y-74662268D01*
X139415743Y-74643570D01*
X139472550Y-74613206D01*
X139522343Y-74572343D01*
X139563206Y-74522550D01*
X139593570Y-74465743D01*
X139612268Y-74404103D01*
X139618582Y-74340000D01*
X139618582Y-73340000D01*
X139612268Y-73275897D01*
X139593570Y-73214257D01*
X139563206Y-73157450D01*
X139522343Y-73107657D01*
X139472550Y-73066794D01*
X139415743Y-73036430D01*
X139354103Y-73017732D01*
X139290000Y-73011418D01*
X137422879Y-73011418D01*
X137388641Y-72977181D01*
X137623250Y-72975000D01*
X137782000Y-72816250D01*
X137782000Y-72213000D01*
X138798000Y-72213000D01*
X138798000Y-72816250D01*
X138956750Y-72975000D01*
X139282312Y-72978026D01*
X139406933Y-72967266D01*
X139527059Y-72932401D01*
X139638076Y-72874770D01*
X139735716Y-72796588D01*
X139816228Y-72700860D01*
X139876517Y-72591264D01*
X139914266Y-72472013D01*
X139925000Y-72371750D01*
X139766250Y-72213000D01*
X138798000Y-72213000D01*
X137782000Y-72213000D01*
X136813750Y-72213000D01*
X136719105Y-72307645D01*
X135719710Y-71308250D01*
X136655000Y-71308250D01*
X136813750Y-71467000D01*
X137782000Y-71467000D01*
X137782000Y-70863750D01*
X138798000Y-70863750D01*
X138798000Y-71467000D01*
X139766250Y-71467000D01*
X139925000Y-71308250D01*
X139914266Y-71207987D01*
X139876517Y-71088736D01*
X139816228Y-70979140D01*
X139735716Y-70883412D01*
X139638076Y-70805230D01*
X139527059Y-70747599D01*
X139406933Y-70712734D01*
X139282312Y-70701974D01*
X138956750Y-70705000D01*
X138798000Y-70863750D01*
X137782000Y-70863750D01*
X137623250Y-70705000D01*
X137297688Y-70701974D01*
X137173067Y-70712734D01*
X137052941Y-70747599D01*
X136941924Y-70805230D01*
X136844284Y-70883412D01*
X136763772Y-70979140D01*
X136703483Y-71088736D01*
X136665734Y-71207987D01*
X136655000Y-71308250D01*
X135719710Y-71308250D01*
X135098118Y-70686658D01*
X135077935Y-70662065D01*
X134979797Y-70581525D01*
X134867833Y-70521679D01*
X134746344Y-70484826D01*
X134720453Y-70482276D01*
X134645236Y-70369706D01*
X134481294Y-70205764D01*
X134288519Y-70076956D01*
X134239002Y-70056445D01*
X134239002Y-69906252D01*
X134397750Y-70065000D01*
X134581000Y-70068072D01*
X134705482Y-70055812D01*
X134825180Y-70019502D01*
X134935494Y-69960537D01*
X135032185Y-69881185D01*
X135111537Y-69784494D01*
X135170502Y-69674180D01*
X135206812Y-69554482D01*
X135219072Y-69430000D01*
X135216000Y-69246750D01*
X135057250Y-69088000D01*
X134239000Y-69088000D01*
X134239000Y-69108000D01*
X133223000Y-69108000D01*
X133223000Y-69088000D01*
X133203000Y-69088000D01*
X133203000Y-68072000D01*
X133223000Y-68072000D01*
X133223000Y-67253750D01*
X134239000Y-67253750D01*
X134239000Y-68072000D01*
X135057250Y-68072000D01*
X135216000Y-67913250D01*
X135219072Y-67730000D01*
X135206812Y-67605518D01*
X135170502Y-67485820D01*
X135111537Y-67375506D01*
X135032185Y-67278815D01*
X134935494Y-67199463D01*
X134825180Y-67140498D01*
X134705482Y-67104188D01*
X134581000Y-67091928D01*
X134397750Y-67095000D01*
X134239000Y-67253750D01*
X133223000Y-67253750D01*
X133064250Y-67095000D01*
X132881000Y-67091928D01*
X132756518Y-67104188D01*
X132699500Y-67121484D01*
X132699500Y-66054772D01*
X132707263Y-65975598D01*
X132725964Y-65913658D01*
X132756343Y-65856523D01*
X132797240Y-65806377D01*
X132847099Y-65765131D01*
X132904019Y-65734354D01*
X132965834Y-65715220D01*
X133044034Y-65707000D01*
X159814728Y-65707000D01*
X159893902Y-65714763D01*
G37*
%TD.AperFunction*%
%TD*%
M02*
