%TF.GenerationSoftware,KiCad,Pcbnew,(5.1.9)-1*%
%TF.CreationDate,2021-03-12T16:28:10+01:00*%
%TF.ProjectId,Demosat RFM95 Board KiCAD,44656d6f-7361-4742-9052-464d39352042,rev?*%
%TF.SameCoordinates,Original*%
%TF.FileFunction,Soldermask,Bot*%
%TF.FilePolarity,Negative*%
%FSLAX46Y46*%
G04 Gerber Fmt 4.6, Leading zero omitted, Abs format (unit mm)*
G04 Created by KiCad (PCBNEW (5.1.9)-1) date 2021-03-12 16:28:10*
%MOMM*%
%LPD*%
G01*
G04 APERTURE LIST*
%ADD10C,2.100000*%
%ADD11O,1.800000X1.800000*%
G04 APERTURE END LIST*
D10*
%TO.C,J3*%
X151638000Y-95758000D03*
X151638000Y-90678000D03*
X156718000Y-90678000D03*
X156718000Y-95758000D03*
X154178000Y-93218000D03*
%TD*%
D11*
%TO.C,J2*%
X159131000Y-86360000D03*
X159131000Y-83820000D03*
X159131000Y-81280000D03*
X159131000Y-78740000D03*
X159131000Y-76200000D03*
X159131000Y-73660000D03*
X159131000Y-71120000D03*
G36*
G01*
X158231000Y-69430000D02*
X158231000Y-67730000D01*
G75*
G02*
X158281000Y-67680000I50000J0D01*
G01*
X159981000Y-67680000D01*
G75*
G02*
X160031000Y-67730000I0J-50000D01*
G01*
X160031000Y-69430000D01*
G75*
G02*
X159981000Y-69480000I-50000J0D01*
G01*
X158281000Y-69480000D01*
G75*
G02*
X158231000Y-69430000I0J50000D01*
G01*
G37*
%TD*%
%TO.C,J1*%
X133731000Y-86360000D03*
X133731000Y-83820000D03*
X133731000Y-81280000D03*
X133731000Y-78740000D03*
X133731000Y-76200000D03*
X133731000Y-73660000D03*
X133731000Y-71120000D03*
G36*
G01*
X132831000Y-69430000D02*
X132831000Y-67730000D01*
G75*
G02*
X132881000Y-67680000I50000J0D01*
G01*
X134581000Y-67680000D01*
G75*
G02*
X134631000Y-67730000I0J-50000D01*
G01*
X134631000Y-69430000D01*
G75*
G02*
X134581000Y-69480000I-50000J0D01*
G01*
X132881000Y-69480000D01*
G75*
G02*
X132831000Y-69430000I0J50000D01*
G01*
G37*
%TD*%
M02*
