%TF.GenerationSoftware,KiCad,Pcbnew,(5.1.9)-1*%
%TF.CreationDate,2021-03-12T16:28:10+01:00*%
%TF.ProjectId,Demosat RFM95 Board KiCAD,44656d6f-7361-4742-9052-464d39352042,rev?*%
%TF.SameCoordinates,Original*%
%TF.FileFunction,Legend,Bot*%
%TF.FilePolarity,Positive*%
%FSLAX46Y46*%
G04 Gerber Fmt 4.6, Leading zero omitted, Abs format (unit mm)*
G04 Created by KiCad (PCBNEW (5.1.9)-1) date 2021-03-12 16:28:10*
%MOMM*%
%LPD*%
G01*
G04 APERTURE LIST*
%ADD10C,0.150000*%
G04 APERTURE END LIST*
D10*
X140601238Y-96589904D02*
X140601238Y-97161333D01*
X140639333Y-97275619D01*
X140715523Y-97351809D01*
X140829809Y-97389904D01*
X140906000Y-97389904D01*
X139839333Y-97389904D02*
X140220285Y-97389904D01*
X140220285Y-96589904D01*
X139115523Y-97313714D02*
X139153619Y-97351809D01*
X139267904Y-97389904D01*
X139344095Y-97389904D01*
X139458380Y-97351809D01*
X139534571Y-97275619D01*
X139572666Y-97199428D01*
X139610761Y-97047047D01*
X139610761Y-96932761D01*
X139572666Y-96780380D01*
X139534571Y-96704190D01*
X139458380Y-96628000D01*
X139344095Y-96589904D01*
X139267904Y-96589904D01*
X139153619Y-96628000D01*
X139115523Y-96666095D01*
X138544095Y-96589904D02*
X138544095Y-97161333D01*
X138582190Y-97275619D01*
X138658380Y-97351809D01*
X138772666Y-97389904D01*
X138848857Y-97389904D01*
X137782190Y-97389904D02*
X138163142Y-97389904D01*
X138163142Y-96589904D01*
X137058380Y-97313714D02*
X137096476Y-97351809D01*
X137210761Y-97389904D01*
X137286952Y-97389904D01*
X137401238Y-97351809D01*
X137477428Y-97275619D01*
X137515523Y-97199428D01*
X137553619Y-97047047D01*
X137553619Y-96932761D01*
X137515523Y-96780380D01*
X137477428Y-96704190D01*
X137401238Y-96628000D01*
X137286952Y-96589904D01*
X137210761Y-96589904D01*
X137096476Y-96628000D01*
X137058380Y-96666095D01*
X136486952Y-96589904D02*
X136486952Y-97161333D01*
X136525047Y-97275619D01*
X136601238Y-97351809D01*
X136715523Y-97389904D01*
X136791714Y-97389904D01*
X135725047Y-97389904D02*
X136106000Y-97389904D01*
X136106000Y-96589904D01*
X135001238Y-97313714D02*
X135039333Y-97351809D01*
X135153619Y-97389904D01*
X135229809Y-97389904D01*
X135344095Y-97351809D01*
X135420285Y-97275619D01*
X135458380Y-97199428D01*
X135496476Y-97047047D01*
X135496476Y-96932761D01*
X135458380Y-96780380D01*
X135420285Y-96704190D01*
X135344095Y-96628000D01*
X135229809Y-96589904D01*
X135153619Y-96589904D01*
X135039333Y-96628000D01*
X135001238Y-96666095D01*
X134429809Y-96589904D02*
X134429809Y-97161333D01*
X134467904Y-97275619D01*
X134544095Y-97351809D01*
X134658380Y-97389904D01*
X134734571Y-97389904D01*
X133667904Y-97389904D02*
X134048857Y-97389904D01*
X134048857Y-96589904D01*
X132944095Y-97313714D02*
X132982190Y-97351809D01*
X133096476Y-97389904D01*
X133172666Y-97389904D01*
X133286952Y-97351809D01*
X133363142Y-97275619D01*
X133401238Y-97199428D01*
X133439333Y-97047047D01*
X133439333Y-96932761D01*
X133401238Y-96780380D01*
X133363142Y-96704190D01*
X133286952Y-96628000D01*
X133172666Y-96589904D01*
X133096476Y-96589904D01*
X132982190Y-96628000D01*
X132944095Y-96666095D01*
M02*
