M48
; DRILL file {KiCad (5.1.9)-1} date 06/23/21 18:37:27
; FORMAT={-:-/ absolute / inch / decimal}
; #@! TF.CreationDate,2021-06-23T18:37:27+02:00
; #@! TF.GenerationSoftware,Kicad,Pcbnew,(5.1.9)-1
FMAT,2
INCH
T1C0.0157
T2C0.0300
T3C0.0394
T4C0.1260
T5C0.0941
T6C0.1358
%
G90
G05
T1
X4.3406Y-3.6843
X4.3406Y-3.7264
X4.3406Y-3.9075
X4.3406Y-3.9492
X5.315Y-3.7402
X5.315Y-3.7795
X5.4134Y-3.3071
X5.4528Y-3.2677
X6.0433Y-3.2677
X6.0827Y-3.3071
X6.2008Y-3.7402
X6.2008Y-3.7795
T2
X4.1465Y-3.3661
X4.1465Y-3.4843
X4.1465Y-3.7992
X4.1465Y-3.9173
X5.052Y-3.3661
X5.052Y-3.9173
T3
X4.0945Y-2.1969
X4.1929Y-2.1969
X4.798Y-2.0063
X4.798Y-2.1063
X4.898Y-2.0063
X4.898Y-2.1063
X4.998Y-2.0063
X4.998Y-2.1063
X5.098Y-2.0063
X5.098Y-2.1063
X5.1969Y-3.6417
X5.1969Y-3.7417
X5.198Y-2.0063
X5.198Y-2.1063
X5.298Y-2.0063
X5.298Y-2.1063
X5.398Y-2.0063
X5.398Y-2.1063
X5.498Y-2.0063
X5.498Y-2.1063
X5.548Y-2.2917
X5.598Y-2.0063
X5.598Y-2.1063
X5.648Y-2.2917
X5.698Y-2.0063
X5.698Y-2.1063
X5.798Y-2.0063
X5.798Y-2.1063
X5.848Y-2.2917
X5.898Y-2.0063
X5.898Y-2.1063
X5.948Y-2.2917
X5.998Y-2.0063
X5.998Y-2.1063
X6.098Y-2.0063
X6.098Y-2.1063
X6.198Y-2.0063
X6.198Y-2.1063
X6.298Y-2.0063
X6.298Y-2.1063
X6.398Y-2.0063
X6.398Y-2.1063
X6.498Y-2.0063
X6.498Y-2.1063
X6.598Y-2.0063
X6.598Y-2.1063
X6.698Y-2.0063
X6.698Y-2.1063
T4
X4.173Y-5.3293
X4.323Y-1.9541
X7.223Y-1.9541
X7.323Y-5.3293
T5
X4.3335Y-2.5
X4.3335Y-4.1535
T6
X4.6614Y-3.1299
X4.6614Y-4.7835
X6.8346Y-2.5
X6.8346Y-4.1535
T0
M30
