G04 #@! TF.GenerationSoftware,KiCad,Pcbnew,(5.1.9)-1*
G04 #@! TF.CreationDate,2021-06-23T18:37:24+02:00*
G04 #@! TF.ProjectId,Demosat_SMD_Power_Board,44656d6f-7361-4745-9f53-4d445f506f77,1.0*
G04 #@! TF.SameCoordinates,Original*
G04 #@! TF.FileFunction,Legend,Bot*
G04 #@! TF.FilePolarity,Positive*
%FSLAX46Y46*%
G04 Gerber Fmt 4.6, Leading zero omitted, Abs format (unit mm)*
G04 Created by KiCad (PCBNEW (5.1.9)-1) date 2021-06-23 18:37:24*
%MOMM*%
%LPD*%
G01*
G04 APERTURE LIST*
%ADD10C,0.150000*%
%ADD11C,0.120000*%
G04 APERTURE END LIST*
D10*
X126460595Y-99000000D02*
X126555833Y-98952380D01*
X126698690Y-98952380D01*
X126841547Y-99000000D01*
X126936785Y-99095238D01*
X126984404Y-99190476D01*
X127032023Y-99380952D01*
X127032023Y-99523809D01*
X126984404Y-99714285D01*
X126936785Y-99809523D01*
X126841547Y-99904761D01*
X126698690Y-99952380D01*
X126603452Y-99952380D01*
X126460595Y-99904761D01*
X126412976Y-99857142D01*
X126412976Y-99523809D01*
X126603452Y-99523809D01*
X125984404Y-99952380D02*
X125984404Y-98952380D01*
X125412976Y-99952380D01*
X125412976Y-98952380D01*
X124936785Y-99952380D02*
X124936785Y-98952380D01*
X124698690Y-98952380D01*
X124555833Y-99000000D01*
X124460595Y-99095238D01*
X124412976Y-99190476D01*
X124365357Y-99380952D01*
X124365357Y-99523809D01*
X124412976Y-99714285D01*
X124460595Y-99809523D01*
X124555833Y-99904761D01*
X124698690Y-99952380D01*
X124936785Y-99952380D01*
X165697238Y-139051904D02*
X165697238Y-139623333D01*
X165735333Y-139737619D01*
X165811523Y-139813809D01*
X165925809Y-139851904D01*
X166002000Y-139851904D01*
X164935333Y-139851904D02*
X165316285Y-139851904D01*
X165316285Y-139051904D01*
X164211523Y-139775714D02*
X164249619Y-139813809D01*
X164363904Y-139851904D01*
X164440095Y-139851904D01*
X164554380Y-139813809D01*
X164630571Y-139737619D01*
X164668666Y-139661428D01*
X164706761Y-139509047D01*
X164706761Y-139394761D01*
X164668666Y-139242380D01*
X164630571Y-139166190D01*
X164554380Y-139090000D01*
X164440095Y-139051904D01*
X164363904Y-139051904D01*
X164249619Y-139090000D01*
X164211523Y-139128095D01*
X163640095Y-139051904D02*
X163640095Y-139623333D01*
X163678190Y-139737619D01*
X163754380Y-139813809D01*
X163868666Y-139851904D01*
X163944857Y-139851904D01*
X162878190Y-139851904D02*
X163259142Y-139851904D01*
X163259142Y-139051904D01*
X162154380Y-139775714D02*
X162192476Y-139813809D01*
X162306761Y-139851904D01*
X162382952Y-139851904D01*
X162497238Y-139813809D01*
X162573428Y-139737619D01*
X162611523Y-139661428D01*
X162649619Y-139509047D01*
X162649619Y-139394761D01*
X162611523Y-139242380D01*
X162573428Y-139166190D01*
X162497238Y-139090000D01*
X162382952Y-139051904D01*
X162306761Y-139051904D01*
X162192476Y-139090000D01*
X162154380Y-139128095D01*
X161582952Y-139051904D02*
X161582952Y-139623333D01*
X161621047Y-139737619D01*
X161697238Y-139813809D01*
X161811523Y-139851904D01*
X161887714Y-139851904D01*
X160821047Y-139851904D02*
X161202000Y-139851904D01*
X161202000Y-139051904D01*
X160097238Y-139775714D02*
X160135333Y-139813809D01*
X160249619Y-139851904D01*
X160325809Y-139851904D01*
X160440095Y-139813809D01*
X160516285Y-139737619D01*
X160554380Y-139661428D01*
X160592476Y-139509047D01*
X160592476Y-139394761D01*
X160554380Y-139242380D01*
X160516285Y-139166190D01*
X160440095Y-139090000D01*
X160325809Y-139051904D01*
X160249619Y-139051904D01*
X160135333Y-139090000D01*
X160097238Y-139128095D01*
X159525809Y-139051904D02*
X159525809Y-139623333D01*
X159563904Y-139737619D01*
X159640095Y-139813809D01*
X159754380Y-139851904D01*
X159830571Y-139851904D01*
X158763904Y-139851904D02*
X159144857Y-139851904D01*
X159144857Y-139051904D01*
X158040095Y-139775714D02*
X158078190Y-139813809D01*
X158192476Y-139851904D01*
X158268666Y-139851904D01*
X158382952Y-139813809D01*
X158459142Y-139737619D01*
X158497238Y-139661428D01*
X158535333Y-139509047D01*
X158535333Y-139394761D01*
X158497238Y-139242380D01*
X158459142Y-139166190D01*
X158382952Y-139090000D01*
X158268666Y-139051904D01*
X158192476Y-139051904D01*
X158078190Y-139090000D01*
X158040095Y-139128095D01*
X130261904Y-82452380D02*
X130261904Y-83261904D01*
X130214285Y-83357142D01*
X130166666Y-83404761D01*
X130071428Y-83452380D01*
X129880952Y-83452380D01*
X129785714Y-83404761D01*
X129738095Y-83357142D01*
X129690476Y-83261904D01*
X129690476Y-82452380D01*
X128690476Y-83452380D02*
X129261904Y-83452380D01*
X128976190Y-83452380D02*
X128976190Y-82452380D01*
X129071428Y-82595238D01*
X129166666Y-82690476D01*
X129261904Y-82738095D01*
D11*
X102820000Y-92500000D02*
X102820000Y-101100000D01*
X102820000Y-101100000D02*
X116820000Y-101100000D01*
X116820000Y-101100000D02*
X130820000Y-101100000D01*
X130820000Y-101100000D02*
X130820000Y-92500000D01*
X130820000Y-92500000D02*
X130820000Y-83900000D01*
X130820000Y-83900000D02*
X116820000Y-83900000D01*
X116820000Y-83900000D02*
X102820000Y-83900000D01*
X102820000Y-83900000D02*
X102820000Y-92500000D01*
D10*
X129011904Y-81792380D02*
X129011904Y-82601904D01*
X128964285Y-82697142D01*
X128916666Y-82744761D01*
X128821428Y-82792380D01*
X128630952Y-82792380D01*
X128535714Y-82744761D01*
X128488095Y-82697142D01*
X128440476Y-82601904D01*
X128440476Y-81792380D01*
X127440476Y-82792380D02*
X128011904Y-82792380D01*
X127726190Y-82792380D02*
X127726190Y-81792380D01*
X127821428Y-81935238D01*
X127916666Y-82030476D01*
X128011904Y-82078095D01*
X110036547Y-84952380D02*
X109703214Y-85952380D01*
X109369880Y-84952380D01*
X108846071Y-84952380D02*
X108655595Y-84952380D01*
X108560357Y-85000000D01*
X108465119Y-85095238D01*
X108417500Y-85285714D01*
X108417500Y-85619047D01*
X108465119Y-85809523D01*
X108560357Y-85904761D01*
X108655595Y-85952380D01*
X108846071Y-85952380D01*
X108941309Y-85904761D01*
X109036547Y-85809523D01*
X109084166Y-85619047D01*
X109084166Y-85285714D01*
X109036547Y-85095238D01*
X108941309Y-85000000D01*
X108846071Y-84952380D01*
X107988928Y-84952380D02*
X107988928Y-85761904D01*
X107941309Y-85857142D01*
X107893690Y-85904761D01*
X107798452Y-85952380D01*
X107607976Y-85952380D01*
X107512738Y-85904761D01*
X107465119Y-85857142D01*
X107417500Y-85761904D01*
X107417500Y-84952380D01*
X107084166Y-84952380D02*
X106512738Y-84952380D01*
X106798452Y-85952380D02*
X106798452Y-84952380D01*
X110465119Y-88428571D02*
X110322261Y-88476190D01*
X110274642Y-88523809D01*
X110227023Y-88619047D01*
X110227023Y-88761904D01*
X110274642Y-88857142D01*
X110322261Y-88904761D01*
X110417500Y-88952380D01*
X110798452Y-88952380D01*
X110798452Y-87952380D01*
X110465119Y-87952380D01*
X110369880Y-88000000D01*
X110322261Y-88047619D01*
X110274642Y-88142857D01*
X110274642Y-88238095D01*
X110322261Y-88333333D01*
X110369880Y-88380952D01*
X110465119Y-88428571D01*
X110798452Y-88428571D01*
X109846071Y-88666666D02*
X109369880Y-88666666D01*
X109941309Y-88952380D02*
X109607976Y-87952380D01*
X109274642Y-88952380D01*
X109084166Y-87952380D02*
X108512738Y-87952380D01*
X108798452Y-88952380D02*
X108798452Y-87952380D01*
X108322261Y-87952380D02*
X107750833Y-87952380D01*
X108036547Y-88952380D02*
X108036547Y-87952380D01*
X107417500Y-88571428D02*
X106655595Y-88571428D01*
X107036547Y-88952380D02*
X107036547Y-88190476D01*
X110465119Y-96428571D02*
X110322261Y-96476190D01*
X110274642Y-96523809D01*
X110227023Y-96619047D01*
X110227023Y-96761904D01*
X110274642Y-96857142D01*
X110322261Y-96904761D01*
X110417500Y-96952380D01*
X110798452Y-96952380D01*
X110798452Y-95952380D01*
X110465119Y-95952380D01*
X110369880Y-96000000D01*
X110322261Y-96047619D01*
X110274642Y-96142857D01*
X110274642Y-96238095D01*
X110322261Y-96333333D01*
X110369880Y-96380952D01*
X110465119Y-96428571D01*
X110798452Y-96428571D01*
X109846071Y-96666666D02*
X109369880Y-96666666D01*
X109941309Y-96952380D02*
X109607976Y-95952380D01*
X109274642Y-96952380D01*
X109084166Y-95952380D02*
X108512738Y-95952380D01*
X108798452Y-96952380D02*
X108798452Y-95952380D01*
X108322261Y-95952380D02*
X107750833Y-95952380D01*
X108036547Y-96952380D02*
X108036547Y-95952380D01*
X107417500Y-96571428D02*
X106655595Y-96571428D01*
X108703214Y-99000000D02*
X108798452Y-98952380D01*
X108941309Y-98952380D01*
X109084166Y-99000000D01*
X109179404Y-99095238D01*
X109227023Y-99190476D01*
X109274642Y-99380952D01*
X109274642Y-99523809D01*
X109227023Y-99714285D01*
X109179404Y-99809523D01*
X109084166Y-99904761D01*
X108941309Y-99952380D01*
X108846071Y-99952380D01*
X108703214Y-99904761D01*
X108655595Y-99857142D01*
X108655595Y-99523809D01*
X108846071Y-99523809D01*
X108227023Y-99952380D02*
X108227023Y-98952380D01*
X107655595Y-99952380D01*
X107655595Y-98952380D01*
X107179404Y-99952380D02*
X107179404Y-98952380D01*
X106941309Y-98952380D01*
X106798452Y-99000000D01*
X106703214Y-99095238D01*
X106655595Y-99190476D01*
X106607976Y-99380952D01*
X106607976Y-99523809D01*
X106655595Y-99714285D01*
X106703214Y-99809523D01*
X106798452Y-99904761D01*
X106941309Y-99952380D01*
X107179404Y-99952380D01*
X127127261Y-84952380D02*
X126793928Y-85952380D01*
X126460595Y-84952380D01*
X126127261Y-85952380D02*
X126127261Y-84952380D01*
X125651071Y-85952380D02*
X125651071Y-84952380D01*
X125079642Y-85952380D01*
X125079642Y-84952380D01*
M02*
