G04 #@! TF.GenerationSoftware,KiCad,Pcbnew,(5.1.9)-1*
G04 #@! TF.CreationDate,2021-06-23T18:37:24+02:00*
G04 #@! TF.ProjectId,Demosat_SMD_Power_Board,44656d6f-7361-4745-9f53-4d445f506f77,1.0*
G04 #@! TF.SameCoordinates,Original*
G04 #@! TF.FileFunction,Copper,L1,Top*
G04 #@! TF.FilePolarity,Positive*
%FSLAX46Y46*%
G04 Gerber Fmt 4.6, Leading zero omitted, Abs format (unit mm)*
G04 Created by KiCad (PCBNEW (5.1.9)-1) date 2021-06-23 18:37:24*
%MOMM*%
%LPD*%
G01*
G04 APERTURE LIST*
G04 #@! TA.AperFunction,SMDPad,CuDef*
%ADD10R,7.340000X6.350000*%
G04 #@! TD*
G04 #@! TA.AperFunction,ComponentPad*
%ADD11O,1.700000X1.700000*%
G04 #@! TD*
G04 #@! TA.AperFunction,ComponentPad*
%ADD12R,1.700000X1.700000*%
G04 #@! TD*
G04 #@! TA.AperFunction,ComponentPad*
%ADD13C,5.600000*%
G04 #@! TD*
G04 #@! TA.AperFunction,ComponentPad*
%ADD14O,1.700000X2.000000*%
G04 #@! TD*
G04 #@! TA.AperFunction,ComponentPad*
%ADD15C,1.524000*%
G04 #@! TD*
G04 #@! TA.AperFunction,ViaPad*
%ADD16C,0.800000*%
G04 #@! TD*
G04 #@! TA.AperFunction,Conductor*
%ADD17C,2.000000*%
G04 #@! TD*
G04 #@! TA.AperFunction,Conductor*
%ADD18C,1.000000*%
G04 #@! TD*
G04 #@! TA.AperFunction,Conductor*
%ADD19C,0.304800*%
G04 #@! TD*
G04 #@! TA.AperFunction,Conductor*
%ADD20C,0.254000*%
G04 #@! TD*
G04 #@! TA.AperFunction,Conductor*
%ADD21C,0.100000*%
G04 #@! TD*
G04 APERTURE END LIST*
D10*
X185330000Y-71500000D03*
X106670000Y-71500000D03*
X185330000Y-113500000D03*
X106670000Y-113500000D03*
D11*
X132000000Y-95040000D03*
D12*
X132000000Y-92500000D03*
G04 #@! TA.AperFunction,SMDPad,CuDef*
G36*
G01*
X133500000Y-98270000D02*
X133500000Y-97270000D01*
G75*
G02*
X134000000Y-96770000I500000J0D01*
G01*
X136000000Y-96770000D01*
G75*
G02*
X136500000Y-97270000I0J-500000D01*
G01*
X136500000Y-98270000D01*
G75*
G02*
X136000000Y-98770000I-500000J0D01*
G01*
X134000000Y-98770000D01*
G75*
G02*
X133500000Y-98270000I0J500000D01*
G01*
G37*
G04 #@! TD.AperFunction*
G04 #@! TA.AperFunction,SMDPad,CuDef*
G36*
G01*
X152500000Y-87730000D02*
X152500000Y-86730000D01*
G75*
G02*
X153000000Y-86230000I500000J0D01*
G01*
X155000000Y-86230000D01*
G75*
G02*
X155500000Y-86730000I0J-500000D01*
G01*
X155500000Y-87730000D01*
G75*
G02*
X155000000Y-88230000I-500000J0D01*
G01*
X153000000Y-88230000D01*
G75*
G02*
X152500000Y-87730000I0J500000D01*
G01*
G37*
G04 #@! TD.AperFunction*
G04 #@! TA.AperFunction,SMDPad,CuDef*
G36*
G01*
X152500000Y-90270000D02*
X152500000Y-89270000D01*
G75*
G02*
X153000000Y-88770000I500000J0D01*
G01*
X155000000Y-88770000D01*
G75*
G02*
X155500000Y-89270000I0J-500000D01*
G01*
X155500000Y-90270000D01*
G75*
G02*
X155000000Y-90770000I-500000J0D01*
G01*
X153000000Y-90770000D01*
G75*
G02*
X152500000Y-90270000I0J500000D01*
G01*
G37*
G04 #@! TD.AperFunction*
G04 #@! TA.AperFunction,SMDPad,CuDef*
G36*
G01*
X133500000Y-90270000D02*
X133500000Y-89270000D01*
G75*
G02*
X134000000Y-88770000I500000J0D01*
G01*
X136000000Y-88770000D01*
G75*
G02*
X136500000Y-89270000I0J-500000D01*
G01*
X136500000Y-90270000D01*
G75*
G02*
X136000000Y-90770000I-500000J0D01*
G01*
X134000000Y-90770000D01*
G75*
G02*
X133500000Y-90270000I0J500000D01*
G01*
G37*
G04 #@! TD.AperFunction*
G04 #@! TA.AperFunction,SMDPad,CuDef*
G36*
G01*
X152500000Y-98270000D02*
X152500000Y-97270000D01*
G75*
G02*
X153000000Y-96770000I500000J0D01*
G01*
X155000000Y-96770000D01*
G75*
G02*
X155500000Y-97270000I0J-500000D01*
G01*
X155500000Y-98270000D01*
G75*
G02*
X155000000Y-98770000I-500000J0D01*
G01*
X153000000Y-98770000D01*
G75*
G02*
X152500000Y-98270000I0J500000D01*
G01*
G37*
G04 #@! TD.AperFunction*
G04 #@! TA.AperFunction,SMDPad,CuDef*
G36*
G01*
X156000000Y-98270000D02*
X156000000Y-97270000D01*
G75*
G02*
X156500000Y-96770000I500000J0D01*
G01*
X158500000Y-96770000D01*
G75*
G02*
X159000000Y-97270000I0J-500000D01*
G01*
X159000000Y-98270000D01*
G75*
G02*
X158500000Y-98770000I-500000J0D01*
G01*
X156500000Y-98770000D01*
G75*
G02*
X156000000Y-98270000I0J500000D01*
G01*
G37*
G04 #@! TD.AperFunction*
G04 #@! TA.AperFunction,SMDPad,CuDef*
G36*
G01*
X175000000Y-87730000D02*
X175000000Y-86730000D01*
G75*
G02*
X175500000Y-86230000I500000J0D01*
G01*
X177500000Y-86230000D01*
G75*
G02*
X178000000Y-86730000I0J-500000D01*
G01*
X178000000Y-87730000D01*
G75*
G02*
X177500000Y-88230000I-500000J0D01*
G01*
X175500000Y-88230000D01*
G75*
G02*
X175000000Y-87730000I0J500000D01*
G01*
G37*
G04 #@! TD.AperFunction*
G04 #@! TA.AperFunction,SMDPad,CuDef*
G36*
G01*
X175000000Y-90270000D02*
X175000000Y-89270000D01*
G75*
G02*
X175500000Y-88770000I500000J0D01*
G01*
X177500000Y-88770000D01*
G75*
G02*
X178000000Y-89270000I0J-500000D01*
G01*
X178000000Y-90270000D01*
G75*
G02*
X177500000Y-90770000I-500000J0D01*
G01*
X175500000Y-90770000D01*
G75*
G02*
X175000000Y-90270000I0J500000D01*
G01*
G37*
G04 #@! TD.AperFunction*
G04 #@! TA.AperFunction,SMDPad,CuDef*
G36*
G01*
X156000000Y-90270000D02*
X156000000Y-89270000D01*
G75*
G02*
X156500000Y-88770000I500000J0D01*
G01*
X158500000Y-88770000D01*
G75*
G02*
X159000000Y-89270000I0J-500000D01*
G01*
X159000000Y-90270000D01*
G75*
G02*
X158500000Y-90770000I-500000J0D01*
G01*
X156500000Y-90770000D01*
G75*
G02*
X156000000Y-90270000I0J500000D01*
G01*
G37*
G04 #@! TD.AperFunction*
G04 #@! TA.AperFunction,SMDPad,CuDef*
G36*
G01*
X175000000Y-98270000D02*
X175000000Y-97270000D01*
G75*
G02*
X175500000Y-96770000I500000J0D01*
G01*
X177500000Y-96770000D01*
G75*
G02*
X178000000Y-97270000I0J-500000D01*
G01*
X178000000Y-98270000D01*
G75*
G02*
X177500000Y-98770000I-500000J0D01*
G01*
X175500000Y-98770000D01*
G75*
G02*
X175000000Y-98270000I0J500000D01*
G01*
G37*
G04 #@! TD.AperFunction*
G04 #@! TA.AperFunction,SMDPad,CuDef*
G36*
G01*
X103020999Y-107918000D02*
X105921001Y-107918000D01*
G75*
G02*
X106171000Y-108167999I0J-249999D01*
G01*
X106171000Y-108968001D01*
G75*
G02*
X105921001Y-109218000I-249999J0D01*
G01*
X103020999Y-109218000D01*
G75*
G02*
X102771000Y-108968001I0J249999D01*
G01*
X102771000Y-108167999D01*
G75*
G02*
X103020999Y-107918000I249999J0D01*
G01*
G37*
G04 #@! TD.AperFunction*
G04 #@! TA.AperFunction,SMDPad,CuDef*
G36*
G01*
X103020999Y-103468000D02*
X105921001Y-103468000D01*
G75*
G02*
X106171000Y-103717999I0J-249999D01*
G01*
X106171000Y-104518001D01*
G75*
G02*
X105921001Y-104768000I-249999J0D01*
G01*
X103020999Y-104768000D01*
G75*
G02*
X102771000Y-104518001I0J249999D01*
G01*
X102771000Y-103717999D01*
G75*
G02*
X103020999Y-103468000I249999J0D01*
G01*
G37*
G04 #@! TD.AperFunction*
G04 #@! TA.AperFunction,SMDPad,CuDef*
G36*
G01*
X105921001Y-77082000D02*
X103020999Y-77082000D01*
G75*
G02*
X102771000Y-76832001I0J249999D01*
G01*
X102771000Y-76031999D01*
G75*
G02*
X103020999Y-75782000I249999J0D01*
G01*
X105921001Y-75782000D01*
G75*
G02*
X106171000Y-76031999I0J-249999D01*
G01*
X106171000Y-76832001D01*
G75*
G02*
X105921001Y-77082000I-249999J0D01*
G01*
G37*
G04 #@! TD.AperFunction*
G04 #@! TA.AperFunction,SMDPad,CuDef*
G36*
G01*
X105921001Y-81532000D02*
X103020999Y-81532000D01*
G75*
G02*
X102771000Y-81282001I0J249999D01*
G01*
X102771000Y-80481999D01*
G75*
G02*
X103020999Y-80232000I249999J0D01*
G01*
X105921001Y-80232000D01*
G75*
G02*
X106171000Y-80481999I0J-249999D01*
G01*
X106171000Y-81282001D01*
G75*
G02*
X105921001Y-81532000I-249999J0D01*
G01*
G37*
G04 #@! TD.AperFunction*
D11*
X151080000Y-58210000D03*
D12*
X148540000Y-58210000D03*
D11*
X140920000Y-58210000D03*
D12*
X143460000Y-58210000D03*
D11*
X170130000Y-53500000D03*
X170130000Y-50960000D03*
X167590000Y-53500000D03*
X167590000Y-50960000D03*
X165050000Y-53500000D03*
X165050000Y-50960000D03*
X162510000Y-53500000D03*
X162510000Y-50960000D03*
X159970000Y-53500000D03*
X159970000Y-50960000D03*
X157430000Y-53500000D03*
X157430000Y-50960000D03*
X154890000Y-53500000D03*
X154890000Y-50960000D03*
X152350000Y-53500000D03*
X152350000Y-50960000D03*
X149810000Y-53500000D03*
X149810000Y-50960000D03*
X147270000Y-53500000D03*
X147270000Y-50960000D03*
X144730000Y-53500000D03*
X144730000Y-50960000D03*
X142190000Y-53500000D03*
X142190000Y-50960000D03*
X139650000Y-53500000D03*
X139650000Y-50960000D03*
X137110000Y-53500000D03*
X137110000Y-50960000D03*
X134570000Y-53500000D03*
X134570000Y-50960000D03*
X132030000Y-53500000D03*
X132030000Y-50960000D03*
X129490000Y-53500000D03*
X129490000Y-50960000D03*
X126950000Y-53500000D03*
X126950000Y-50960000D03*
X124410000Y-53500000D03*
X124410000Y-50960000D03*
X121870000Y-53500000D03*
D12*
X121870000Y-50960000D03*
D13*
X109805000Y-49635000D03*
X186005000Y-135365000D03*
X105995000Y-135365000D03*
X183465000Y-49635000D03*
D14*
X106500000Y-55800000D03*
G04 #@! TA.AperFunction,ComponentPad*
G36*
G01*
X103150000Y-56550000D02*
X103150000Y-55050000D01*
G75*
G02*
X103400000Y-54800000I250000J0D01*
G01*
X104600000Y-54800000D01*
G75*
G02*
X104850000Y-55050000I0J-250000D01*
G01*
X104850000Y-56550000D01*
G75*
G02*
X104600000Y-56800000I-250000J0D01*
G01*
X103400000Y-56800000D01*
G75*
G02*
X103150000Y-56550000I0J250000D01*
G01*
G37*
G04 #@! TD.AperFunction*
D15*
X128320000Y-99500000D03*
X128320000Y-85500000D03*
X105320000Y-85500000D03*
X105320000Y-88500000D03*
X105320000Y-96500000D03*
X105320000Y-99500000D03*
D16*
X110249974Y-93579974D03*
X110249974Y-100310026D03*
X110249974Y-99250026D03*
X110249974Y-94650026D03*
X157500000Y-95000000D03*
X154500000Y-84000000D03*
X153500000Y-83000000D03*
X157500000Y-96000000D03*
X135000000Y-95000000D03*
X138500000Y-83000000D03*
X137500000Y-84000000D03*
X135000000Y-96000000D03*
D17*
X147270000Y-56940000D02*
X148540000Y-58210000D01*
X147270000Y-53500000D02*
X147270000Y-56940000D01*
X147270000Y-50960000D02*
X147270000Y-53130000D01*
D18*
X167590000Y-50960000D02*
X170130000Y-50960000D01*
X170130000Y-53500000D02*
X170130000Y-50960000D01*
X170130000Y-53500000D02*
X167590000Y-53500000D01*
X167590000Y-53500000D02*
X167590000Y-50960000D01*
X124410000Y-50960000D02*
X124410000Y-53500000D01*
X124410000Y-53500000D02*
X121870000Y-53500000D01*
X121870000Y-50960000D02*
X121870000Y-53500000D01*
X121870000Y-50960000D02*
X124410000Y-50960000D01*
X142190000Y-50960000D02*
X142190000Y-53500000D01*
D17*
X128320000Y-99500000D02*
X129081999Y-100261999D01*
X129081999Y-100261999D02*
X139988001Y-100261999D01*
X135500000Y-89770000D02*
X138770000Y-89770000D01*
X138770000Y-89770000D02*
X140000000Y-91000000D01*
X140000000Y-100250000D02*
X139988001Y-100261999D01*
X140000000Y-91000000D02*
X140000000Y-100250000D01*
X159770000Y-89770000D02*
X161000000Y-91000000D01*
X157250000Y-89770000D02*
X159770000Y-89770000D01*
X161000000Y-100000000D02*
X160738001Y-100261999D01*
X161000000Y-91000000D02*
X161000000Y-100000000D01*
X153500000Y-100023998D02*
X153261999Y-100261999D01*
X154000000Y-97770000D02*
X154000000Y-100023998D01*
X153261999Y-100261999D02*
X160738001Y-100261999D01*
X139988001Y-100261999D02*
X153261999Y-100261999D01*
X176500000Y-99500000D02*
X176500000Y-97770000D01*
X175738001Y-100261999D02*
X176500000Y-99500000D01*
X160738001Y-100261999D02*
X175738001Y-100261999D01*
X143460000Y-58210000D02*
X144730000Y-56940000D01*
X144730000Y-56940000D02*
X144730000Y-50960000D01*
X109890000Y-111890000D02*
X109890000Y-113500000D01*
X107200000Y-109200000D02*
X109890000Y-111890000D01*
X104100000Y-109200000D02*
X107200000Y-109200000D01*
X103516000Y-80882000D02*
X104471000Y-80882000D01*
X106442000Y-104118000D02*
X110249974Y-100310026D01*
X103516000Y-104118000D02*
X106442000Y-104118000D01*
X105320000Y-88500000D02*
X110250000Y-88500000D01*
X110250000Y-85750000D02*
X110250000Y-83420000D01*
X110250000Y-88500000D02*
X110250000Y-85750000D01*
X104471000Y-80882000D02*
X110018000Y-80882000D01*
X129490000Y-61510000D02*
X110350000Y-80650000D01*
X129490000Y-50960000D02*
X129490000Y-61510000D01*
X110250000Y-81114000D02*
X110250000Y-85750000D01*
X110018000Y-80882000D02*
X110250000Y-81114000D01*
X110249974Y-99250026D02*
X110249974Y-100310026D01*
X110249974Y-94650026D02*
X110249974Y-93579974D01*
X110250000Y-88500000D02*
X110250000Y-94650000D01*
X110250000Y-94650000D02*
X110249974Y-94650026D01*
X126950000Y-50960000D02*
X126950000Y-53500000D01*
X157500000Y-97770000D02*
X157500000Y-96000000D01*
X153500000Y-60630000D02*
X151080000Y-58210000D01*
X153500000Y-83000000D02*
X154500000Y-84000000D01*
X153500000Y-60630000D02*
X153500000Y-83000000D01*
X157500000Y-96000000D02*
X157500000Y-95000012D01*
X134999992Y-94999992D02*
X134999976Y-94999976D01*
X135000000Y-97770000D02*
X135000000Y-96000000D01*
X138500000Y-60630000D02*
X138500000Y-83000000D01*
X140920000Y-58210000D02*
X138500000Y-60630000D01*
X138500000Y-83000000D02*
X137500000Y-84000000D01*
X135000000Y-96000000D02*
X135000000Y-95000016D01*
D19*
X137110000Y-54190000D02*
X137110000Y-53500000D01*
D17*
X154000000Y-89770000D02*
X154000000Y-87230000D01*
X176500000Y-89770000D02*
X176500000Y-87230000D01*
X132000000Y-88000000D02*
X132000000Y-92500000D01*
X132770000Y-87230000D02*
X132000000Y-88000000D01*
X175250000Y-87230000D02*
X132770000Y-87230000D01*
X182110000Y-113500000D02*
X182110000Y-106610000D01*
X182110000Y-106610000D02*
X182110000Y-102890000D01*
X182110000Y-102890000D02*
X181720000Y-102500000D01*
X116811211Y-102500000D02*
X111161248Y-96850037D01*
X111161248Y-96850037D02*
X105670037Y-96850037D01*
X105670037Y-96850037D02*
X105320000Y-96500000D01*
X179220000Y-102500000D02*
X182110000Y-99610000D01*
X181720000Y-102500000D02*
X178000000Y-102500000D01*
X178000000Y-102500000D02*
X116811211Y-102500000D01*
X179220000Y-102500000D02*
X182110000Y-105390000D01*
X178000000Y-102500000D02*
X179220000Y-102500000D01*
X182110000Y-105390000D02*
X182110000Y-106610000D01*
X182110000Y-99610000D02*
X182110000Y-105390000D01*
X182110000Y-71500000D02*
X182110000Y-99610000D01*
X109890000Y-72974000D02*
X109890000Y-71500000D01*
X107164000Y-75700000D02*
X109890000Y-72974000D01*
X104732000Y-75700000D02*
X107164000Y-75700000D01*
D20*
X110496257Y-68440769D02*
X110585955Y-68477923D01*
X110662976Y-68537024D01*
X110722077Y-68614045D01*
X110759231Y-68703743D01*
X110773000Y-68808328D01*
X110773000Y-74420440D01*
X110760552Y-74519969D01*
X110726883Y-74605944D01*
X110673074Y-74680981D01*
X110596347Y-74745587D01*
X107262702Y-76907952D01*
X107157503Y-76956397D01*
X107042888Y-76973000D01*
X103308328Y-76973000D01*
X103203743Y-76959231D01*
X103114045Y-76922077D01*
X103037024Y-76862976D01*
X102977923Y-76785955D01*
X102940769Y-76696257D01*
X102927000Y-76591672D01*
X102927000Y-68808328D01*
X102940769Y-68703743D01*
X102977923Y-68614045D01*
X103037024Y-68537024D01*
X103114045Y-68477923D01*
X103203743Y-68440769D01*
X103308328Y-68427000D01*
X110391672Y-68427000D01*
X110496257Y-68440769D01*
G04 #@! TA.AperFunction,Conductor*
D21*
G36*
X110496257Y-68440769D02*
G01*
X110585955Y-68477923D01*
X110662976Y-68537024D01*
X110722077Y-68614045D01*
X110759231Y-68703743D01*
X110773000Y-68808328D01*
X110773000Y-74420440D01*
X110760552Y-74519969D01*
X110726883Y-74605944D01*
X110673074Y-74680981D01*
X110596347Y-74745587D01*
X107262702Y-76907952D01*
X107157503Y-76956397D01*
X107042888Y-76973000D01*
X103308328Y-76973000D01*
X103203743Y-76959231D01*
X103114045Y-76922077D01*
X103037024Y-76862976D01*
X102977923Y-76785955D01*
X102940769Y-76696257D01*
X102927000Y-76591672D01*
X102927000Y-68808328D01*
X102940769Y-68703743D01*
X102977923Y-68614045D01*
X103037024Y-68537024D01*
X103114045Y-68477923D01*
X103203743Y-68440769D01*
X103308328Y-68427000D01*
X110391672Y-68427000D01*
X110496257Y-68440769D01*
G37*
G04 #@! TD.AperFunction*
D20*
X107256299Y-108044329D02*
X107363298Y-108094834D01*
X110598227Y-110251453D01*
X110694397Y-110341369D01*
X110751532Y-110448125D01*
X110773000Y-110578016D01*
X110773000Y-116191672D01*
X110759231Y-116296257D01*
X110722077Y-116385955D01*
X110662976Y-116462976D01*
X110585955Y-116522077D01*
X110496257Y-116559231D01*
X110391672Y-116573000D01*
X103308328Y-116573000D01*
X103203743Y-116559231D01*
X103114045Y-116522077D01*
X103037024Y-116462976D01*
X102977923Y-116385955D01*
X102940769Y-116296257D01*
X102927000Y-116191672D01*
X102927000Y-108408328D01*
X102940769Y-108303743D01*
X102977923Y-108214045D01*
X103037024Y-108137024D01*
X103114045Y-108077923D01*
X103203743Y-108040769D01*
X103308328Y-108027000D01*
X107139262Y-108027000D01*
X107256299Y-108044329D01*
G04 #@! TA.AperFunction,Conductor*
D21*
G36*
X107256299Y-108044329D02*
G01*
X107363298Y-108094834D01*
X110598227Y-110251453D01*
X110694397Y-110341369D01*
X110751532Y-110448125D01*
X110773000Y-110578016D01*
X110773000Y-116191672D01*
X110759231Y-116296257D01*
X110722077Y-116385955D01*
X110662976Y-116462976D01*
X110585955Y-116522077D01*
X110496257Y-116559231D01*
X110391672Y-116573000D01*
X103308328Y-116573000D01*
X103203743Y-116559231D01*
X103114045Y-116522077D01*
X103037024Y-116462976D01*
X102977923Y-116385955D01*
X102940769Y-116296257D01*
X102927000Y-116191672D01*
X102927000Y-108408328D01*
X102940769Y-108303743D01*
X102977923Y-108214045D01*
X103037024Y-108137024D01*
X103114045Y-108077923D01*
X103203743Y-108040769D01*
X103308328Y-108027000D01*
X107139262Y-108027000D01*
X107256299Y-108044329D01*
G37*
G04 #@! TD.AperFunction*
M02*
